{
    "static": {
	"parameters file"              : "parameters.json",
	"num elements"                 : 40,
	"output directory"             : "output",
	"length adjustment iterations" : 0,
	"force"                        : 100.0
    }    
}
