-0.000014677563105188612, 0.02429162082695917
-0.000046112479040474885, 0.023569942171445927
0.00006374934450886771, 0.02333379831768661
0.00020087614616534286, 0.02433596979461641
0.0003776975483013277, 0.023685854246004622
0.0006302995513527351, 0.023564902516030335
0.001186023958065826, 0.023863502099404355
0.0014677723460847017, 0.023624215383613877
0.0017872167253281702, 0.02375237769749048
0.002583755041616939, 0.023650576658095456
0.002954237979425664, 0.023655616313511048
0.0033367495840463633, 0.023662095870473954
0.0036110031873593205, 0.02358002148227712
0.004217247994682694, 0.023844603391595873
0.0044530098641973395, 0.02361025941477069
0.0047890470743172375, 0.02376694688314647
0.0055644586776235246, 0.023640497347264262
0.005934941615432253, 0.023655616313511048
0.006317453220052952, 0.023662095870473954
0.006616967023671046, 0.02358002148227712
0.00719795163068928, 0.023855942616280962
0.007479700018708155, 0.023624215383613877
0.007799144397951624, 0.023758425283989193
0.008545927774245416, 0.023640497347264262
0.008915645251438838, 0.023655616313511048
0.009308020362845355, 0.023658640106760408
0.009597670659677635, 0.0236001801039395
0.01025832205227362, 0.02376377507204575
0.010621550778712657, 0.0237271794204125
0.010911201075544944, 0.023983193915524743
0.011576386350246975, 0.0237085326953748
0.011938449221287329, 0.023733227006911217
0.012329380892676406, 0.023778727895806304
0.01260363449598936, 0.023685854246004622
0.013159358902702454, 0.02398445382937864
0.013446406633442685, 0.02379718481564004
0.013760551669964798, 0.023930781499202552
0.014557089986253564, 0.023826964597641286
0.014939361017538025, 0.023902559428875217
0.015310084528682995, 0.02390399933042253
0.015584338131995945, 0.023882400807212836
0.016225028667008146, 0.024088568528759915
0.016582958050725835, 0.024029558745348217
0.01687260834755812, 0.02430573186212284
0.0175344255955528, 0.024106161507665265
0.01790827656006888, 0.024139423233408196
0.018290788164689577, 0.024171821018222735
0.018590301968307674, 0.02412430426716141
0.019204966842399425, 0.024328410311493017
0.019563661686732424, 0.024269446343130552
0.01987857218386984, 0.024540075838948017
0.02055600482841679, 0.024324974182800566
0.02093950059668575, 0.024381326693356766
0.021322012201306445, 0.024387806250319673
0.021596265804619402, 0.02430573186212284
0.022236190879016293, 0.02451487756187004
0.022585022216563472, 0.024465560933874576
0.02288453602018157, 0.02474922153869522
0.0235497212948836, 0.024497238767915458
0.02392020423269233, 0.024502278423331053
0.024312579344098847, 0.024507318078746648
0.02460222964093113, 0.02451739738957784
0.025233734648559644, 0.02475174136640302
0.025469496518074286, 0.02451739738957784
0.025764198854967592, 0.024683706018292482
0.026531190391505498, 0.024610860090012517
0.02690090786869892, 0.02462323015330534
0.02730507107358117, 0.02462323015330534
0.027608193477242852, 0.024577873254564984
0.028264958685176512, 0.024755521107964716
0.028546707073195385, 0.024531353358421024
0.028853160492281926, 0.024742022030958658
0.029561648967507057, 0.024507318078746648
0.02993213190531579, 0.024502278423331053
0.030336295110198037, 0.024472040490837482
0.03063941751385972, 0.024411564625850337
0.031296182721793374, 0.02458165299612668
0.03157793110981225, 0.024303405867315643
0.03187716732881161, 0.024438022816782215
0.03259363846473923, 0.024226013676457967
0.03296335594193266, 0.02419800922761449
0.03335573105333917, 0.024128335991493884
0.03364538135017145, 0.0240235111588495
0.03432740675841024, 0.02412430426716141
0.03456316862792489, 0.02384712321930367
0.0348999712986601, 0.02391011891199861
0.0356240970407408, 0.023653096485803254
0.03599457997854952, 0.023615929027113236
0.03637709158317023, 0.023521705469610944
0.03667660538678832, 0.023358276643990927
0.03730811039441683, 0.023500646909481494
0.03758985878243571, 0.023200884328703875
0.03793119533527696, 0.023239844741724438
0.03870130759586189, 0.022958980868755304
0.03907632441577667, 0.022875099681020732
0.0394468073535854, 0.022766117132658487
0.039707829423405186, 0.022582169709989258
0.0403393344310337, 0.022710680923086937
0.04062108281905257, 0.02240074211502783
0.04092031903805193, 0.022424260506967275
0.04163602471336425, 0.022128600722585684
0.042006507651172975, 0.02202654770041988
0.042381524471087756, 0.021905305221094695
0.04266327285910663, 0.02170526966767568
0.04332003806704028, 0.02176952527422452
0.04360178645505916, 0.021423824296004746
0.04392123083430263, 0.021442199654981606
0.04461672834937084, 0.021072792913018477
0.04497542319370383, 0.020973511701331247
0.04535264218492726, 0.020792084106369818
0.04566923669541836, 0.020652989616899393
0.04640178250426743, 0.02057890668229014
0.04668353089228631, 0.020191047048189904
0.04698276711128566, 0.020219831233928977
0.0476479523859877, 0.019790200609749477
0.0480066472303207, 0.01965513784461153
0.048383866221544135, 0.019425329557660385
0.048675200531730085, 0.019331591966930312
0.049508787141799716, 0.018947858204571413
0.04955369416456442, 0.018607561472223123
0.049909064162019644, 0.018565176677958633
0.05008977174881795, 0.018515167789603878
0.05067464254049852, 0.018032523867110333
0.051015979093339776, 0.017902849656609054
0.05128542122992794, 0.017605509987088933
0.05161169881720267, 0.017539994466686193
0.052332316198129884, 0.016769767130669386
0.05268238685286374, 0.016683023970788836
0.05290283951007225, 0.016372397936991235
0.053171516186045105, 0.01651190476190476
0.05370586657711538, 0.015813524821043617
0.05404643766934133, 0.015660432071915326
0.054266890326549834, 0.015322317008578112
0.054611347603438117, 0.015303467388322382
0.0550407710086255, 0.014493522767958858
0.055466585813769294, 0.014251619308010284
0.05581465169070118, 0.014030332620216416
0.056020866780464966, 0.013692217556879209
0.056253260623272246, 0.013828288253100281
0.056737090613732256, 0.013047916995285416
0.05708179519328086, 0.012869745793054062
0.05724346047523376, 0.012503866809881848
0.05757310608921585, 0.012463801549327864
0.057970954244021815, 0.01164737737200143
0.05838483291055988, 0.011384830708138977
0.05874054834665176, 0.011023216048779948
0.05909847773036945, 0.010759138105002765
0.05913292345805828, 0.010471877746313835
0.05976831465034912, 0.009919453979604358
0.060113019229897736, 0.009694762881229044
0.06027468451185062, 0.009331907691306186
0.06059801507575643, 0.009322836311558114
0.0609516578800284, 0.008476174201738108
0.0613341694846491, 0.008210512366258874
0.06168059508883388, 0.007830378357768258
0.06203279445308842, 0.007575083813429674
0.06215332169454437, 0.007294734982167844
0.0627490182863557, 0.006604911379347468
0.06309372286590431, 0.006404875825928455
0.06323910935210503, 0.006025221784620276
0.06360397891206815, 0.005951306838524885
0.06388184111542469, 0.005089525762458094
0.06425685793533947, 0.004834829331069934
0.06455544645689512, 0.0044570490078008895
0.06490403722110605, 0.004003983985938868
0.06522784893168435, 0.003808733336123235
0.06519537153129201, 0.0035020343065455817
0.06578024232297258, 0.002906579635902941
0.06611105379235335, 0.0026780506460957546
0.06621981298811161, 0.0023093158581880407
0.0665594223477696, 0.002252199763477958
0.06676150395021072, 0.001396718256680661
0.06712693484795842, 0.0010527617745662854
0.06747510460883094, 0.0008108583146177115
0.0675838638045892, 0.00039424680026183684
0.06792347316424718, 0.000039791036031633364
0.06823669964803095, -0.00032004036064187114
0.06876094595897916, -0.0012081051780299876
0.06909175742835993, -0.001419189206783196
0.06920051662411819, -0.0018030429609376952
0.06951486578347105, -0.0018682225043127262
0.06969168718560703, -0.0027420987533769495
0.07001646118953025, -0.003100634238657869
0.07034845239354068, -0.0033015005045080245
0.07039897279415097, -0.0037248315594180306
0.07070209519781265, -0.004082647093925286
0.07100521760147435, -0.004553854875283453
0.0712830798048309, -0.004928301272662174
0.07179216999559604, -0.0058670727768472125
0.07211666641490053, -0.006063231672254227
0.07218122026012477, -0.006473123646055977
0.07249556941947763, -0.006555102040816323
0.07267239082161361, -0.007402520098948671
0.07299716482553684, -0.0077615955473098325
0.07332915602954726, -0.00797830073018043
0.07337967643015755, -0.008396592129674842
0.07368279883381923, -0.00876952663042889
0.07398592123748093, -0.00925333355032603
0.07428215449560485, -0.009643219619296178
0.07481589924750698, -0.010683875737581429
0.0751478904515174, -0.010860983627900923
0.07521244429674165, -0.011270875601702673
0.07555205365639964, -0.011349830203213666
0.07570361485823049, -0.012172553949809595
0.07602838886215371, -0.01252191006272639
0.07636669511624042, -0.012788651824366115
0.0764614208673847, -0.013204423396152722
0.0767645432710464, -0.013554679447536591
0.07706766567470807, -0.014018327745771358
0.07732026767775949, -0.014349685089346746
0.07780409766821947, -0.015243157844661605
0.07812859408752398, -0.015406752812767849
0.07820942672850043, -0.015844194902841523
0.07855801749271138, -0.015932316877537073
0.07878535929545763, -0.01682163607069622
0.07911013329938085, -0.017165592552810603
0.07944843955346759, -0.017399936529635777
0.07954316530461186, -0.017819487842984087
0.07985600316992936, -0.018180889286152448
0.08019021505088969, -0.018627480289134427
0.08042727231529176, -0.018601894346255254
0.08078480130422608, -0.019606724102964705
0.08111561277360685, -0.019856768544738473
0.0812243719693651, -0.020238102471185182
0.0815639813290231, -0.02029017891047967
0.08176606293146421, -0.021111642743221692
0.08213149382921192, -0.021450307587149692
0.08247966359008443, -0.021712621651531427
0.08258842278584269, -0.022136372677726057
0.08292803214550068, -0.02247234970543241
0.08324722922208383, -0.02284894941012508
0.08380853055613702, -0.023750982279446303
0.08417139533829815, -0.023974167019279805
0.08426120938382756, -0.024353821060587977
0.0846204655659451, -0.024381659157169375
0.08494884816991194, -0.025235340787032517
0.08531427906765962, -0.025544523646779282
0.0856763419387, -0.025804569866223995
0.08583800722065288, -0.02621580574813659
0.08618154594480279, -0.0263337336848615
0.0861865979848638, -0.0266451843895453
0.0867892341921436, -0.027265062005663532
0.08714143355639814, -0.027479751326367874
0.08730309883835102, -0.027818416170295873
0.08760116920195168, -0.027926516778960395
0.08836402725116693, -0.028725554145103027
0.0887034324879942, -0.0288470556556681
0.08892388514520269, -0.02918517071900531
0.08917740570099245, -0.029167027959509165
0.08972691221224582, -0.029831797275406302
0.0900682487650871, -0.03000915437945513
0.09033769090167523, -0.030240978528572507
0.09063239323856856, -0.030346307326758457
0.09141545944802792, -0.030462723366858707
0.09169720783604679, -0.030834301037308554
0.09201665221529026, -0.030851280799401096
0.09271214973035846, -0.03127662771647734
0.09307421260139881, -0.031374397031539894
0.09341101527213402, -0.03144545617289979
0.0941435610809831, -0.03128670702730853
0.09442530946900196, -0.031529773484660684
0.09476664602184323, -0.03145805531143876
0.09505292829196815, -0.031226231162321386
0.09564309842637006, -0.03159870751258312
0.09601281590356353, -0.031592866093805946
0.09634119850753031, -0.031509711779448626
0.09700638378223236, -0.03118087426358103
0.09736507862656538, -0.031140557020256268
0.09767998912370277, -0.030780221658041215
0.09842172045993552, -0.03081801907365818
0.098791437937129, -0.03066682941119031
0.09917394954174968, -0.03048972152087083
0.09942294294475748, -0.030485401816228885
0.0999320331355226, -0.029976008953452565
0.1003070499554374, -0.029849649285551547
0.10053439175818366, -0.029336360381473164
0.10055965195848879, -0.029850405233863883
0.10133710479010255, -0.02914149370540349
0.10172162117252528, -0.0290320911857566
0.10212578437740755, -0.02881853578752075
0.1024289067810692, -0.028716482765354948
0.10301377757274977, -0.028303618687077342
0.10338879439266457, -0.028161490712712525
0.10436832882671943, -0.027555682134629514
0.10475284520914216, -0.02748050727468021
0.1051570084140244, -0.02733687709533575
0.10546855088445445, -0.027285220627325885
0.10610005589208296, -0.02700803957946815
0.10643685856281818, -0.026950083542188807
0.1067231408329431, -0.026614946457051716
0.1073638313679553, -0.026796374052013155
0.10773354884514874, -0.026684871675943106
0.10813771205003098, -0.02669621090062818
0.1085081949878397, -0.026819052501383334
0.109400722065288, -0.02693622448979592
0.10963648393480263, -0.027277661144202492
0.10991434613815917, -0.0271642688973516
0.11054585114578769, -0.027580040469138214
0.1108946824833349, -0.02766679453736383
0.11121256734172036, -0.027895935233597582
0.11157309929153009, -0.027990772385509233
0.11187622169519179, -0.028769399147218697
0.112280384900074, -0.02904910002278424
0.11264581579782168, -0.029404899695125275
0.11300787866886208, -0.029638739706408887
0.11308365926977751, -0.02989273833935488
0.11367358210151907, -0.030501683779879274
0.11402895209897432, -0.030673548951744442
0.11409911932204414, -0.03102590485955148
0.11442750192601098, -0.03105387494710804
0.11460432332814696, -0.03188768593561826
0.11492909733207021, -0.03223488219621409
0.11526108853608061, -0.03242062949581746
0.1153116089366909, -0.03282506184291899
0.11561473134035258, -0.03316901832503337
0.11591785374401425, -0.03362258731243693
0.1162140870021382, -0.03400399759729904
0.11674783175404033, -0.03495629612063554
0.11707982295805072, -0.03514204342023891
0.117144376803275, -0.035531776772378273
0.11745872596262785, -0.03558956482114378
0.11763554736476384, -0.036423375809654004
0.11796032136868706, -0.036770572070249835
0.11829231257269748, -0.036956319369853205
0.11834283297330775, -0.03736075171695473
0.11864595537696945, -0.0377047081990691
0.11894907778063113, -0.038158277186472675
0.11925220018429283, -0.03857152893055149
0.11978655057536308, -0.03950560967854201
0.12011736204474388, -0.03972309019301501
0.12024240003625433, -0.04011920710868079
0.12057204565023641, -0.040218236337597246
0.12102041420565265, -0.04108757689678742
0.12139543102556746, -0.041301277669698724
0.12170632579855378, -0.041699022781729544
0.12205103037810239, -0.041933483058295085
0.12217155761955834, -0.042191801395883036
0.12275975942666378, -0.042895913252519055
0.12310782530359565, -0.0431193597926339
0.12332827796080414, -0.04345197705006318
0.12362221483708213, -0.043487712788464666
0.1242733666671702, -0.0443142162766223
0.12462757080922673, -0.04438275559027438
0.12478923609117962, -0.044715372847703674
0.12508730645478028, -0.04473880724538619
0.12569743744676598, -0.04540433250959566
0.12603800853899194, -0.04559062354824488
0.12624422362875573, -0.045891628421703606
0.12660291847308872, -0.045919706501876226
0.12713338267949667, -0.046753409497770404
0.12752783042272312, -0.046918555129081455
0.12786231988830216, -0.04725017553159337
0.12814739929174587, -0.047340889329074085
0.12872866148338286, -0.048007120698850034
0.1290733660629315, -0.04814435439247469
0.12923503134488437, -0.048467900270155906
0.12955330986872915, -0.04860094717312763
0.1304463551041324, -0.04934146638657916
0.13078692619635837, -0.04948307013105374
0.13099314128612216, -0.049774178953878215
0.13122553512892945, -0.04961089411841292
0.1317138990014955, -0.05030384673805727
0.1320507016722307, -0.05044999674510953
0.13230713097835864, -0.050692587430796604
0.13261484614571217, -0.050871815903394846
0.13334739195456125, -0.05091868469875989
0.1336291403425801, -0.05129607735622772
0.1339485847218236, -0.05131933730429972
0.13463954835478575, -0.051772906291703294
0.13500277708122482, -0.05190192147034253
0.1353682079789725, -0.05206232650271318
0.13567133038263418, -0.05223403476223025
0.13632809559056785, -0.05217355889724311
0.13665286959449108, -0.052531014456363545
0.13695960059819637, -0.05253893391487377
0.13767530627350866, -0.05288163048313424
0.1380457892113174, -0.053016441265501424
0.13841550668851083, -0.05314735776868382
0.13867729421894592, -0.05340575464635615
0.13925827882596414, -0.05321676756827133
0.139540027213983, -0.05355694430882402
0.1398594715932265, -0.05354182534257723
0.14055496910829468, -0.05389460122166889
0.14092545204610343, -0.05400295381310419
0.14131782715750996, -0.05413751261270058
0.14163273765464737, -0.05428769434408533
0.14239054366380158, -0.054331791328971785
0.14267229205182044, -0.05468737778512214
0.14294987667055825, -0.05464119017395064
0.1436321796634158, -0.05503162501658743
0.14400719648333057, -0.055161444601764156
0.14438970808795126, -0.05534098232594474
0.14465133159111165, -0.05552996940402956
0.14542176770041845, -0.05564336165088045
0.14565752956993308, -0.056046534084128075
0.14597244006707052, -0.056054597532793016
0.14661741718152843, -0.05651018238236283
0.14697611202586144, -0.05665935618266446
0.14735333101708484, -0.05689521205611432
0.1476446653272708, -0.05698139016372099
0.1485035121376456, -0.05735126487368701
0.14857367936071542, -0.05771298014155157
0.14892904935817067, -0.05774606095658727
0.1491855375458844, -0.05757858933046903
0.14964864121814528, -0.05826902212240559
0.14996860375534374, -0.05777729574399822
0.14998609158632423, -0.05861598301447926
