
{
    "cable": {
	"EI": 195.0,
	"height": 0.0,
	"line density": 1.35,
	"span": 55.0,
	"tension": 22000.0,
	"gravity": 9.81
    },

    "suspension spring": {
	"stiffness": 2673.58
    },

    "moving load": {
	"xinit" : 10.0,
	"zbase" : -0.35,  
	"speed" : 50.0,   
	"force" : 100.0    
    }
 
}
