-0.004537870431009977, 0.007659737969261768
-0.004807078686343447, 0.001013662251878794
-0.004717342601232299, -0.0031651627742392274
-0.001367195423749329, 0.009037100225794473
-0.0018278406606532516, -0.0033569238027837123
0.00156418335654826, 0.007981762320403499
0.0019829517537336416, 0.003984784147204504
0.0019829517537336416, 0.0007887670047967005
0.00156418335654826, -0.002443776047810056
0.005333098931216612, 0.00173844066996931
0.008683246108699583, 0.0016836518046708937
0.012033393286182553, 0.0022589348903042927
0.015383540463665524, 0.002341118188251917
0.018733687641148494, 0.0017658351026185182
0.022246689195314695, 0.001829755445466666
0.02487562413320063, 0.006998171738617581
0.02501521359892908, -0.0024529075253597737
0.025596836372797666, 0.0009287829938926656
0.028365360776412052, 0.00869662656286857
0.02848500888989358, -0.004080584080766114
0.028963601343819728, 0.0021584886372572054
0.03171550795389502, 0.008229616711039181
0.03171550795389502, -0.0025037829002797496
0.03171550795389502, -0.00675383345128569
0.032134276351080376, 0.004485710915647187
0.032134276351080376, 0.000994877498062166
0.03506565513137799, 0.008285710073130434
0.03480392488313713, -0.0033725777642975296
0.035564955912637475, 0.0027457128858402458
0.038513514934870874, -0.0006185241352969356
0.041765949486343934, -0.00041397903818291004
0.045116096663826905, 0.00035110833080574666
0.048466243841309875, 0.0010261854210898563
0.051537212087335915, 0.00086964580595153
0.05377064353899125, -0.000737494242802117
0.056702022319288864, 0.006961645828418642
0.056841611785017315, 0.001354918612880368
0.056678757408334085, -0.002163744069618112
0.060191758962500286, 0.008650969175119885
0.060289471588510196, 0.001433188420449552
0.060028904585817056, -0.003527378050378782
0.06186683255124176, -0.006562072422741233
0.06354190613998326, 0.008204831271975646
0.06354190613998326, 0.004540499780945603
0.06354190613998326, 0.0011148912030015667
0.06354190613998326, -0.002480301958008982
0.06521697972872473, -0.005986789337107834
0.06689205331746623, 0.008285710073130434
0.06713365046968855, 0.0029817264594334397
0.06689205331746623, -0.001521496815286641
0.0664314080805623, -0.003839065817409809
0.07024220049494914, -0.0006249161695817962
0.07331316874097527, 0.00022261539671304675
0.07526742126117364, -0.0022611464968153167
0.07694249484991514, 0.00214935715970746
0.07861756843865661, -0.002672062986553453
0.08029264202739811, 0.0025602736494455963
0.08196771561613958, -0.003082979476291603
0.08364278920488108, 0.0025602736494455963
0.08531786279362255, -0.003658262561925002
0.08699293638236405, 0.0018206239679169345
0.08891927100941677, -0.004014390186364736
0.09042361594392115, 0.0025265574246465944
0.09118062035421776, 0.008285710073130434
0.09201815714858849, -0.0030281906109931866
0.0919483624157243, -0.006647734378803061
0.0938560851140132, 0.0010129665202559257
0.09411199913451535, -0.008954154281670262
0.09453076753170073, 0.00869662656286857
0.09557768852466417, -0.0032103385016336305
0.09704337791481296, 0.002341118188251917
0.09771340735030956, -0.010954313124164533
0.0978809147091837, 0.00869662656286857
0.09871845150355443, -0.0011901546299105115
0.09864865677069024, -0.004964063851537331
0.10067904899946775, 0.0026399665444251236
0.10087211754622205, -0.008410022579449394
0.10123106188666667, 0.008230921207832018
0.10215235236047451, -0.0023049775890540553
0.10252924391794133, -0.006980294094519168
0.1037436722697789, 0.002341118188251917
0.1054187458585204, -0.0062881280962491515
0.10709381944726187, 0.0016836518046708937
0.10876889303600334, -0.006918200047180967
0.11044396662474487, 0.0020123849964614055
0.11211904021348634, -0.007356510969568325
0.11379411380222781, 0.0025602736494455963
0.11546918739096929, -0.007794821891955683
0.11714426097971081, 0.0025602736494455963
0.11881933456845228, -0.008287921679641458
0.12049440815719376, 0.0020123849964614055
0.12216948174593523, -0.008835810332625649
0.12408615248689908, 0.002459124975048521
0.12510086052623287, 0.008230921207832018
0.12510086052623287, -0.0026446685539042447
0.12569910109364052, -0.01023124918757315
0.1271947025121597, 0.0017110462373201019
0.12796244457366623, -0.013835801595414754
0.1284510077037158, 0.00869662656286857
0.12861386208039904, -0.0038253830954939894
0.1288697761009011, -0.008528992686954506
0.12928854449808658, -0.010282236376503912
0.1305448496896427, 0.002478090351497972
0.1313823864840134, -0.016451462609105932
0.1318011548811988, 0.00869662656286857
0.13205241591951, -0.00408013682472283
0.13263869167556952, -0.010369898560981389
0.13414625790543688, 0.0026479358339230596
0.1347325336614964, -0.014342091295116793
0.13515130205868175, 0.008285710073130434
0.13487212312722485, -0.004116140936204632
0.13626801778450942, -0.01065601819087314
0.13633781251737365, -0.008178343949044597
0.13724514404460864, 0.0027520346779900673
0.1361982230516452, 0.0010261854210898563
0.13933898603053546, -0.011273914838405313
0.14059529122209158, 0.0016836518046708937
0.14268913320801846, -0.011849197924038712
0.14394543839957458, 0.0018206239679169345
0.1460392803855014, -0.012369692144373695
0.14729558557705752, 0.0025602736494455963
0.1493894275629844, -0.012835397499410262
0.15064573275454052, 0.0024506959188487637
0.15273957474046734, -0.01327370842179762
0.15399587993202346, 0.0016836518046708937
0.15608972191795034, -0.013712019344184978
0.15759728814781765, 0.001289171974522274
0.15943986909543328, 0.0052997169143665784
0.15899118866987755, -0.0032316921106730345
0.1598586374926187, -0.00521974522292995
0.1596814662476556, -0.015107028145244727
0.16153371108136017, 0.0022589348903042927
0.16220374051685676, -0.01837950886889317
0.16279001627291628, 0.006505071950931793
0.16279001627291628, -0.0053749803412754815
0.1628705486569904, -0.012679459959714784
0.1648838582588431, 0.0025602736494455963
0.16572139505321387, -0.009082360226468522
0.16572139505321387, -0.02108112172682239
0.16614016345039923, 0.006505071950931793
0.16614016345039923, -0.005668492119659835
0.16614016345039923, -0.015081740976645469
0.1682340054363261, 0.00250548478414718
0.16886215803210414, -0.011496983789977433
0.16907154223069687, -0.01869780608634114
0.16949031062788222, 0.00603936659589524
0.16949031062788222, -0.00491840646378866
0.1696531650045654, -0.015538024965956104
0.17076988073039306, 0.00007651175591724679
0.17158415261380905, 0.0020123849964614055
0.17258919676705398, -0.01578303845246523
0.17493429979129205, 0.0016836518046708937
0.17619060498284816, -0.016506251474404376
0.178284446968775, 0.0014918907761264227
0.1795407521603311, -0.01699935126209015
0.181634594146258, 0.0008070299598961772
0.1828908993378141, -0.01771160651096959
0.18498474132374093, 0.0010261854210898563
0.18624104651529705, -0.018725200518990348
0.18833488850122393, 0.00173844066996931
0.18961445860373477, -0.020294510160752205
0.19112667781579307, 0.004806617126680804
0.19073117432956244, -0.002772509239600568
0.19168503567870693, -0.00521974522292995
0.19202327169181815, -0.022369502966955224
0.1933601092674484, 0.0016836518046708937
0.19461641445900452, 0.006505071950931793
0.19461641445900452, -0.0053293229535268105
0.19503518285618987, -0.01955877396960201
0.19370908293176953, -0.024498120625933817
0.19587271965056063, -0.02743663010143904
0.19671025644493134, 0.0008070299598961772
0.19796656163648746, 0.006505071950931793
0.197826972170759, -0.0044892270189510475
0.19796656163648746, -0.015985757254069366
0.19838533003367287, -0.022204293465439978
0.19922286682804358, -0.02746402453408825
0.20031166466072559, 0.0007193677754187139
0.20131670881397046, 0.00603936659589524
0.20131670881397046, -0.00491840646378866
0.20110732461537778, -0.018979577393590158
0.20341055079989728, 0.0019028072658645728
0.2023636298069339, -0.0013114728316426932
0.2050856243886388, -0.02275218211842417
0.20676069797738028, 0.0016836518046708937
0.20843577156612175, -0.023519226232602053
0.21011084515486322, 0.0015192852087756309
0.21178591874360475, -0.02395753715498941
0.21280292770819775, -0.0007270582684595628
0.2151360659210877, -0.024423242510025978
0.21597360271545846, -0.0005079028072658837
0.2184862130985707, -0.02535465322009911
0.2191442777227191, -0.00019482357698923092
0.22183636027605363, -0.02634085279547066
0.22292515810873564, 0.0015083274357159532
0.22455835485775855, -0.005526562868601093
0.22490098354636479, -0.02823438918555693
0.22626564140012967, 0.0024711664839052877
0.22497712325494396, -0.00028874734607220454
0.22672833655226454, -0.031108646264484924
0.22728034943946346, -0.007931794055201724
0.22867624409674808, -0.026861347015805642
0.22909501249393344, 0.002622889495500949
0.2297929598225757, -0.0343948159943383
0.23063049661694646, -0.007959188487850932
0.2310492650141318, -0.001603680113234307
0.23146803341131716, -0.023080915310214695
0.23188680180850257, -0.029354240386883723
0.23272433860287328, 0.003311663802109635
0.2331431070000587, -0.034476999292285926
0.2339806437944294, -0.007794821891955683
0.2343994121916148, -0.0017680467091295282
0.23481818058880016, -0.025710780844538816
0.2354463331845782, -0.030634473539356777
0.23607448578035628, 0.0028459584470730825
0.23661888469669723, -0.03206628921915547
0.23628386997894896, -0.007155618463474123
0.2378891488348262, 0.0010261854210898563
0.23649325417754163, -0.0037952347251710428
0.23837771196487584, -0.029700304750350293
0.23998299082075308, -0.03173755602736497
0.24109970654658075, 0.0016836518046708937
0.24319354853250758, -0.03228544468034916
0.24654369570999057, -0.03316206652512388
0.24696246410717593, -0.004233545647558401
0.24989384288747352, -0.034066082802547804
0.2503126112846589, -0.004233545647558401
0.2532439900649565, -0.03505228237791935
0.25303460586636384, -0.004233545647558401
0.25659413724243946, -0.036108924780103135
0.2578504424339956, 0.0011279361709297941
0.25952551602273705, -0.0023707242274121493
0.258897363426959, -0.006425100259495192
0.2592839188705147, -0.0114993920917488
0.259623228648747, -0.03871400487536372
0.2614797685429355, -0.0000904638335636615
0.26287566320022004, -0.012342297711724487
0.26287566320022004, -0.03650262191217607
0.2621079211387135, -0.042030557521428036
0.2645507367889615, -0.00041397903818291004
0.2649695051861469, -0.006699044585987274
0.2649695051861469, -0.04417462845010617
0.26580704198051763, -0.032531994574192036
0.266225810377703, -0.012342297711724487
0.266225810377703, -0.03894229181410713
0.2678031713404346, -0.00036388636133864727
0.2685709134019411, -0.007915357395612194
0.26831965236362987, -0.04343497876857752
0.26915718915800063, -0.03535362113706064
0.26986148146235783, -0.011764524223122963
0.26978534175377866, -0.0402773138318786
0.270204110150964, -0.00291861288039634
0.2706228785481494, -0.006425100259495192
0.2721184799666686, -0.03942365113065752
0.2737636415270397, -0.041435185185185214
0.2771137887045227, -0.04217483486671386
0.28046393588200563, -0.04316103444208541
0.280882704279191, -0.01146567586694977
0.28381408305948863, -0.04411983958480775
0.284232851456674, -0.01146567586694977
0.2871642302369716, -0.04499646142958247
0.2898024711392394, -0.034915310214673284
0.29009560901726916, -0.03929841943854684
0.29067723179113775, -0.046252257008803366
0.2904445826815903, -0.030166941888810278
0.29218945100319604, -0.04288709011559333
0.2930269877975668, -0.026833952583156434
0.2933061667290237, -0.007155618463474123
0.2928176035989741, -0.012561453172918152
0.2926780141332457, -0.016140992372414897
0.2938645245919375, -0.047638589233759104
0.295539598180679, -0.0171637178579854
0.2957908592189902, -0.050994015884249455
0.29637713497504975, -0.027573602264685082
0.2967959033722351, -0.0053293229535268105
0.2967959033722351, -0.013657230478886562
0.297095023655939, -0.04389770241665908
0.2990525997348452, -0.016887744314260017
0.2986803611595693, -0.032592262326020305
0.2986384843198508, -0.0385094597782496
0.298889745358162, -0.048092032318943156
0.298889745358162, -0.054200990799716936
0.30000646108398965, -0.004653593614846296
0.30011613852134766, -0.014183501756446892
0.30065455503201466, -0.04239790381828601
0.3022969973170794, -0.016964485620536596
0.30240739989451915, -0.04874193262112583
0.302239892535645, -0.05321479122434539
0.30349619772720104, -0.005849817173861793
0.3037055819257938, -0.04378683713078618
0.30412435032297913, -0.009668601085161599
0.30412435032297913, -0.013175088464260465
0.3045431187201645, -0.016652355115200135
0.30570968782660946, -0.04970830384524655
0.306218192308906, -0.04797071411721096
0.3089401868906109, -0.05110541991035625
0.30977772368498163, -0.027902335456475608
0.30977772368498163, -0.04283230125029491
0.31229033406809387, -0.03436742156168909
0.31229033406809387, -0.052009436187780145
0.31312787086246463, -0.02691613588110406
0.31312787086246463, -0.043078851144137786
0.31522171284839146, -0.018588228355744307
0.3153344581860952, -0.03405554648229811
0.31564048124557686, -0.05302303019580093
0.31584986544416954, -0.028691295116772847
0.3160592496427622, -0.04069553550365654
0.31668740223854025, -0.03747212392859953
0.31857186002587445, -0.020012738853503215
0.3189906284230598, -0.05400922977117248
0.3223407756005428, -0.05499542934654403
0.32513256491511194, -0.01427817095226866
0.3246440017850623, -0.019749752300070783
0.3247038258418031, -0.02348791830957439
0.32536986700685033, -0.05773669890697494
0.32661819565750766, -0.02486546692279179
0.32862230155832334, -0.012342297711724487
0.3287028339423974, -0.05554963979167804
0.327814676792323, -0.0607422595176311
0.32987860674987945, -0.024204087048832285
0.3307161435442502, -0.06384383109223876
0.331553680338621, -0.05162591413069123
0.33197244873580634, -0.012342297711724487
0.33197244873580634, -0.05787184477471102
0.33322875392736245, -0.02436845364472756
0.33406629072173316, -0.06277544821891959
0.3349038275161039, -0.054200990799716936
0.3353225959132893, -0.01286279193205947
0.3354854502899725, -0.05893892315123739
0.33595074850906737, -0.016681575843359303
0.33595074850906737, -0.02018806322245814
0.33579371036012284, -0.024450636942675186
0.33786511832477195, -0.06011818825194623
0.33812834417443133, -0.05779514036329325
0.3411853534738845, -0.06052910474168438
0.34453550065136745, -0.06220016513328616
0.3470481110344797, -0.028121490917669273
0.34788564782885045, -0.0639534088228356
0.3503982582119627, -0.0284502241094598
0.3512357950063334, -0.06540531375324371
0.3531202527936676, -0.02978707242274123
0.3545859421838164, -0.06639151332861526
0.3579593542722541, -0.06802169948737538
0.35947157348431247, -0.02149203821656054
0.35898301035426283, -0.026850389242745965
0.3588434208885344, -0.03045914917040185
0.3603589636593004, -0.07024317055909413
0.3617050049359677, -0.03162797829676814
0.36296131012752386, -0.01979358339230952
0.3633800785247092, -0.06728770262528225
0.36205397860028876, -0.0723178422583943
0.3642176153190799, -0.07521252064166078
0.3652180064901339, -0.03250460014154283
0.3663114573050068, -0.01979358339230952
0.3663114573050068, -0.06351509790044824
0.36673022570219216, -0.07026195531291077
0.36756776249656287, -0.07502075961311633
0.3684052992909337, -0.03328273247845967
0.36966160448248975, -0.020259288747346088
0.369452220283897, -0.06625454116536922
0.37016412655911224, -0.07173342769521115
0.37028975707826783, -0.02404519933946686
0.37028975707826783, -0.027551686718565727
0.3707085254754532, -0.030970511913187088
0.3722998453847576, -0.06935193835023987
0.3734537849681129, -0.07301589298664082
0.3767806672346411, -0.07463723755602739
0.38013081441212404, -0.07614393135173392
0.383480961589607, -0.07751365298419441
0.38683110876709004, -0.0788833746166549
0.390181255944573, -0.08019830738381695
0.39336854874537275, -0.08209866932277879
0.39411302589592456, -0.08483405415323322
0.3973003186967242, -0.08164760332063944
0.3963371513831979, -0.08724963434772354
0.3979703481322209, -0.04341854210898799
0.39897539228546575, -0.08989593654163719
0.4002316974770219, -0.07784238617598493
0.4006504658742073, -0.0842252889832508
0.40063143094706244, -0.044465175463052314
0.4023255394629487, -0.08874537037037039
0.40358184465450486, -0.08071880160415193
0.40337246045591213, -0.04644288747346076
0.4041681204105644, -0.08564249429896989
0.40689011499226935, -0.08544525438389564
0.40874665488645767, -0.0870012581583707
0.4119572125982123, -0.08764959306440201
0.4153073597756952, -0.04968090941259734
0.4153073597756952, -0.08863579263977356
0.41865750695317816, -0.05096844774711018
0.41865750695317816, -0.08989593654163719
0.4220076541306612, -0.09121086930879926
0.42535780130814416, -0.09264190229052227
0.427813306909822, -0.035333697913315754
0.4272422590954783, -0.04026270346779903
0.4272422590954783, -0.04376919084689787
0.427996042210412, -0.045478603444208565
0.4280498838614787, -0.09571529673440504
0.43122055886873933, -0.0338195329087049
0.43122055886873933, -0.04565392781316349
0.43122055886873933, -0.05513240150979007
0.43131827149474933, -0.09333241592618804
0.43025739155521303, -0.09908402925218213
0.43289563245748086, -0.10181251474404343
0.4345707060462223, -0.0338195329087049
0.4345707060462223, -0.04565392781316349
0.4345707060462223, -0.05683085633404106
0.4345707060462223, -0.08981375324368956
0.4345707060462223, -0.09614186718565701
0.4362457796349638, -0.10099068176456713
0.43792085322370533, -0.03436742156168909
0.43792085322370533, -0.045297800188723786
0.43729270062792724, -0.05827728237791935
0.4377114690251126, -0.09255319650861055
0.4380837076003885, -0.09753695403353341
0.4385490058194833, -0.03815881104033972
0.4385490058194833, -0.04166529841943856
0.4406428478054102, -0.09567397027600852
0.4412710004011883, -0.09910046591177166
0.4446211475786712, -0.1006619485727766
0.44797129475615416, -0.10219603680113237
0.4496463683448957, -0.06154269874970514
0.4513214419336372, -0.1037027305968389
0.452787131323786, -0.06287328547838103
0.45467158911112016, -0.10520942439254544
0.4580217362886031, -0.10681656444129911
0.4596968098773446, -0.04168173507902809
0.45906865728156654, -0.04543477235196983
0.45906865728156654, -0.048941259731068665
0.4596968098773446, -0.052666902571361196
0.45997598880880153, -0.1100673704490053
0.46304695705482757, -0.04127081858928994
0.46304695705482757, -0.053105213493748554
0.4631274894389017, -0.10764120710617528
0.46293063250005384, -0.11394926301625999
0.46514079904075445, -0.06855567350790281
0.46597833583512516, -0.10397667492333099
0.4663971042323105, -0.04127081858928994
0.4663971042323105, -0.053105213493748554
0.4663971042323105, -0.11033218329794764
0.4663971042323105, -0.11633156404812459
0.4684909462182374, -0.06998018400566172
0.4693284830126081, -0.10679830148619959
0.46974725140979356, -0.04168173507902809
0.46974725140979356, -0.052666902571361196
0.46991010578647674, -0.11170668808531511
0.4691190988140155, -0.11468789808917199
0.47037540400557154, -0.04543477235196983
0.47037540400557154, -0.048941259731068665
0.47232965652576997, -0.11064569736048857
0.47351616698446186, -0.1133181764567115
0.4768663141619448, -0.11449613706062753
0.48021646133942786, -0.1158110698277896
0.4814727665309839, -0.07436329322953528
0.4835666085169108, -0.11712600259495165
0.48482291370846686, -0.07611653691908471
0.48691675569439374, -0.11863269639065818
0.48754490829017183, -0.077562962962963
0.4902669028718767, -0.12013939018636471
0.4934774605836313, -0.04755327514350871
0.49298889745358165, -0.05297372021703234
0.4928493079878532, -0.056538649052449486
0.49361705004935974, -0.12201786556802485
0.49361705004935974, -0.12539912125501299
0.4948733552409158, -0.058118394668553924
0.4970835217816164, -0.045366590652931776
0.4970477296109167, -0.12211108691575775
0.49685087267206896, -0.12820248486278216
0.49822350241839874, -0.05792663364000947
0.4994798076099549, -0.08296514508138714
0.49989857600714027, -0.11824917433356927
0.5003173444043256, -0.0456813222458127
0.5003173444043256, -0.12468686600613355
0.5003173444043256, -0.13065885232366128
0.5015736495958818, -0.05792663364000947
0.5028299547874379, -0.0842252889832508
0.5032487231846232, -0.12082425100259497
0.5038303459584919, -0.12604223817387303
0.5030393389860306, -0.12910832743571596
0.5045050283761794, -0.057269167256428416
0.5048540020405005, -0.04981788157584338
0.504714412574772, -0.053850342061807055
0.5065988703621062, -0.12439161489869202
0.5070176387592916, -0.1276728591648974
0.5103677859367746, -0.12915215852795472
0.5137179331142575, -0.13065885232366128
0.515393006702999, -0.09003290870488326
0.5170680802917405, -0.1322477294173154
0.518743153880482, -0.09145741920264214
0.5204182274692235, -0.13397357867421564
0.5237683746467064, -0.13572682236376507
0.5271185218241894, -0.13764443264920975
0.5279560586185602, -0.05132457537154991
0.5273279060227821, -0.05507761264449165
0.5273279060227821, -0.05858410002359049
0.5279560586185602, -0.062254953998584606
0.5282796523800216, -0.14157855779511833
0.5313062057960432, -0.05091365888181176
0.5313062057960432, -0.06274805378627038
0.5313062057960432, -0.09562137296532203
0.5314856779662653, -0.13843495770565836
0.5311898812412694, -0.14506933850576223
0.5346563529735261, -0.05091365888181176
0.5346563529735261, -0.06274805378627038
0.5346563529735261, -0.09740201108752067
0.5346563529735261, -0.13509675041283323
0.5346563529735261, -0.14134268105685302
0.5346563529735261, -0.14720508964378395
0.538006500151009, -0.05137936423684833
0.538006500151009, -0.062254953998584606
0.5373783475552311, -0.09877721160651098
0.538006500151009, -0.13808274357159708
0.537922746471572, -0.14364459609746236
0.536750194959453, -0.14580797357867423
0.5386346527467871, -0.0551652748289691
0.5386346527467871, -0.05867176220806797
0.540728494732714, -0.1408199952819061
0.5413566473284921, -0.14435606864826614
0.544706794505975, -0.14594494574192027
0.548056941683458, -0.14742424510497762
0.5493132468750141, -0.10436019698041993
0.5514070888609409, -0.1493144609577731
0.5526633940524971, -0.10570252418023121
0.554757236038424, -0.1516703821656051
0.5581073832159069, -0.15388019973264136
0.55964286733892, -0.05480366831799954
0.5591543042088704, -0.06016201934418497
0.5590147147431419, -0.06377077927184086
0.5600616357361053, -0.1576606314382323
0.5618762987905752, -0.06493960839820714
0.5631326039821314, -0.053105213493748554
0.5633120761523536, -0.15510642671789168
0.5630162794273577, -0.16172515355648173
0.5652264459680582, -0.06493960839820714
0.5652264459680582, -0.11145535503656526
0.5664827511596143, -0.053105213493748554
0.5664827511596143, -0.1516155933003067
0.5664827511596143, -0.15799849610757258
0.5664827511596143, -0.16388829912715266
0.5685765931455412, -0.0647752418023119
0.5685765931455412, -0.11271549893842889
0.5698328983370973, -0.05357091884878512
0.5696235141385046, -0.1543863444882553
0.5699661428271108, -0.15976751234925338
0.5687859773441338, -0.16231768498859792
0.5704610509328754, -0.05735682944090589
0.5704610509328754, -0.06086331682000473
0.5708798193300607, -0.06428214201462612
0.5724153034530738, -0.15798327697832296
0.5736018139117657, -0.1608749115357396
0.5769519610892486, -0.16210766100495402
0.5803021082667316, -0.16342259377211607
0.5815584134582877, -0.1195093182354329
0.5836522554442145, -0.1648197098372258
0.5849085606357707, -0.12126256192498233
0.5870024026216976, -0.16692908115121494
0.5876305552174755, -0.12270898796886057
0.5903525497991805, -0.16920281906109932
0.593563107510935, -0.061981009672092496
0.5930745443808854, -0.06743798065581508
0.5935398425999803, -0.07131946737962308
0.5937026969766634, -0.1714374220671991
0.5938190215314372, -0.17536961023302142
0.5970528441541464, -0.06011818825194623
0.5970528441541464, -0.07195258315640482
0.5972323163243687, -0.17176745975578253
0.5970528441541464, -0.17848953172918144
0.5995654545372586, -0.12816595895258318
0.6004029913316294, -0.06011818825194623
0.6004029913316294, -0.07195258315640482
0.6004029913316294, -0.1682714083510262
0.6004029913316294, -0.17457212786034446
0.6004029913316294, -0.1806810863411182
0.6029156017147417, -0.12959046945034206
0.6037531385091124, -0.0605838936069828
0.6037531385091124, -0.0715690610993159
0.6037531385091124, -0.17123000707714084
0.6037531385091124, -0.1762614512070457
0.6031249859133343, -0.17898811040339704
0.6043812911048905, -0.06436980419910357
0.6043812911048905, -0.06787629157820241
0.606534957147558, -0.17476690786718088
0.6075220540837807, -0.1775581210191083
0.6108722012612637, -0.1787086871903751
0.6142223484387467, -0.18005101439018636
0.6154786536303027, -0.1361651332861524
0.6175724956162296, -0.1814481304552961
0.6188288008077858, -0.13791837697570183
0.6209226427937126, -0.18322876857749473
0.6215507953894907, -0.13936480301958007
0.6242727899711956, -0.18522856216088704
0.6276229371486786, -0.18745533818622992
0.6279021160801355, -0.07145948336871905
0.6274135529500858, -0.0768178343949045
0.6272739634843575, -0.08042659432256036
0.6283208844773208, -0.19200803199317004
0.6301355475317908, -0.08159542344892665
0.6313918527233469, -0.06976102854446806
0.6313918527233469, -0.14558881811748056
0.6315713248935692, -0.18837109493478923
0.6313918527233469, -0.1953371078084454
0.6334856947092737, -0.08159542344892665
0.6347419999008299, -0.06976102854446806
0.6347419999008299, -0.1473694562396792
0.6347419999008299, -0.18506419556499173
0.6347419999008299, -0.19147449280490683
0.6347419999008299, -0.1972821125265393
0.6368358418867567, -0.0814310568530314
0.6380921470783129, -0.07022673389950462
0.6374639944825348, -0.14874465675866952
0.6380921470783129, -0.1880775831564048
0.6380323230215721, -0.1944604859636707
0.6387202996740909, -0.0740126444916254
0.6387202996740909, -0.07751913187072423
0.6391390680712763, -0.08093795706534562
0.6410235258586104, -0.190844420853975
0.6411910332174846, -0.19530058189824648
0.6447924414332787, -0.19747387355508375
0.647305051816391, -0.15520426397735318
0.6481425886107618, -0.19947366713847606
0.650655198993874, -0.15693011323425335
0.6514927357882447, -0.20117212196272707
0.6533771935755789, -0.15834366595895263
0.6548428829657277, -0.20254184359518754
0.6581930301432106, -0.20385677636234964
0.6615431773206937, -0.20559045260000672
0.6618223562521506, -0.08110232366124087
0.6613337931221009, -0.0864606746874263
0.6611942036563725, -0.0899963827946843
0.6621248000945622, -0.20851078608686538
0.6640557877038059, -0.09121086930879926
0.665312092895362, -0.07940386883698988
0.665312092895362, -0.20557479863849296
0.665312092895362, -0.21204771172446332
0.6657308612925473, -0.1648744987025242
0.6674059348812889, -0.09123826374144847
0.6682434716756596, -0.20152824958716678
0.6686622400728449, -0.07940386883698988
0.6686622400728449, -0.20813030785562633
0.6686622400728449, -0.2139927164425572
0.6690810084700303, -0.16657295352677517
0.6707560820587718, -0.09112868601085164
0.6715936188531425, -0.2041033262561925
0.672012387250328, -0.07973260202878038
0.6719774898838958, -0.21090236354036776
0.6705466978601792, -0.21286954470393962
0.6718030030517352, -0.1679865062514744
0.6731988977090198, -0.08327561531807817
0.6730593082432913, -0.08724963434772354
0.673268692441884, -0.09052600849256903
0.6747343818320328, -0.20732804232804233
0.6751112733894997, -0.21194283018232066
0.6787126816052939, -0.21410229417315405
0.6812252919884061, -0.17410642250530786
0.6820628287827768, -0.21607469332389714
0.684575439165889, -0.1758322717622081
0.6854129759602599, -0.21810188133993866
0.6875068179461866, -0.1773663599905638
0.6887631231377428, -0.22010167492333096
0.6921132703152257, -0.22210146850672327
0.6942071123011526, -0.08463620547298892
0.6935789597053745, -0.08838924274593066
0.6935789597053745, -0.0918957301250295
0.6942071123011526, -0.09559397853267282
0.6945211885990417, -0.22688636274278526
0.6975572594786356, -0.0842252889832508
0.6975572594786356, -0.09605968388770939
0.6975572594786356, -0.18394102382637414
0.6977367316488579, -0.22396820341724802
0.6974409349238618, -0.2308646431286205
0.7009074066561185, -0.0842252889832508
0.7009074066561185, -0.09605968388770939
0.7009074066561185, -0.18566687308327437
0.7009074066561185, -0.2207317468742628
0.7009074066561185, -0.22726988479987417
0.7009074066561185, -0.23284008610521348
0.7042575538336016, -0.08474578320358578
0.7042575538336016, -0.09556658410002361
0.7036294012378235, -0.1871406935598018
0.7040481696350088, -0.22360816230242983
0.7041977297768608, -0.22966624540828365
0.7048857064293795, -0.08856456711488558
0.7048857064293795, -0.09207105449398445
0.7069795484153064, -0.2266325076669026
0.7076077010110845, -0.2306211370606275
0.7109578481885674, -0.23248395848077377
0.7143079953660504, -0.2342372021703232
0.7155643005576066, -0.19095399858457182
0.7176581425435334, -0.23604523472517105
0.7189144477350895, -0.19267984784147205
0.7210082897210164, -0.23799023944326494
0.7216364423167945, -0.19415366831799954
0.7243584368984993, -0.24001742745930646
0.7277085840759824, -0.24221680905200013
0.7279877630074392, -0.08811529841943858
0.7274991998773896, -0.093473649445624
0.7273596104116611, -0.09708240937327986
0.7284065314046245, -0.24679689729158946
0.7302211944590945, -0.09825123849964615
0.7314774996506507, -0.08641684359518756
0.7314774996506507, -0.20037768341589998
0.731656971820873, -0.24314430627169478
0.7314774996506507, -0.2501259731068648
0.7335713416365776, -0.09825123849964615
0.7348276468281336, -0.08641684359518756
0.7348276468281336, -0.20213092710544941
0.7348276468281336, -0.23971608870016517
0.7348276468281336, -0.24618117480537863
0.7348276468281336, -0.2520709778249587
0.7369214888140605, -0.0980868719037509
0.7381777940056166, -0.08688254895022413
0.7375496414098386, -0.203533522057089
0.7379684098070239, -0.2424868398881138
0.7384633179127884, -0.2480795734107836
0.7373402572112459, -0.25067386175984907
0.7388059466013946, -0.0906684595423449
0.7388059466013946, -0.09417494692144374
0.73922471499858, -0.09759377211606513
0.7408997885873215, -0.24547987732955887
0.7415279411830996, -0.24957808445388066
0.7448780883605826, -0.2514409058740269
0.7473906987436948, -0.2099931292757726
0.7482282355380655, -0.25319414956357633
0.7496939249282143, -0.2111163010143902
0.7515783827155484, -0.25494739325312576
0.7540909930986607, -0.21462278839348906
0.7549285298930315, -0.25689239797121965
0.7563942192831803, -0.21586466934025325
0.7582786770705144, -0.25889219155461196
0.7616288242479974, -0.26111114059919793
0.7619080031794543, -0.09525611386333258
0.7614194400494048, -0.1006619485727766
0.7612798505836762, -0.10420496186207442
0.7623331165523546, -0.2655133429124936
0.7641414346311096, -0.10526421325784385
0.7649557065145256, -0.2683402269927394
0.7653977398226658, -0.09342981835338526
0.765639336974888, -0.26216266536011756
0.7658165082198511, -0.2218549186128804
0.7674915818085926, -0.10526421325784385
0.7683291186029634, -0.2711922918141071
0.7687478870001487, -0.09342981835338526
0.7687478870001487, -0.2587552193913659
0.7687478870001487, -0.26511072776598255
0.7691666553973341, -0.22363555673507904
0.7708417289860756, -0.10518202995989623
0.7716792657804463, -0.26869939844302904
0.7720980341776317, -0.09384073484312339
0.771888649979039, -0.2613029016277424
0.7725865973076812, -0.2674601264898504
0.771888649979039, -0.2250107572540694
0.7732845446363237, -0.09737461665487146
0.7731449551705951, -0.1013632460485964
0.7733543393691878, -0.10471632460485966
0.7748200287593366, -0.26430846223839854
0.7751969203168034, -0.26898064795156096
0.7787983285325977, -0.2711648973814579
0.7817297073128953, -0.23149775890540222
0.7821484757100806, -0.2732194798301486
0.7850798544903782, -0.23325100259495166
0.7854986228875636, -0.2751096956829441
0.7878018490720832, -0.23465359754659118
0.7888487700650465, -0.2768629393724935
0.7921989172425296, -0.27861618306204294
0.7955490644200125, -0.2805337933474876
0.7963866012143832, -0.10175772587874501
0.7957584486186052, -0.10627232837933476
0.7957584486186052, -0.1097788157584336
0.7963866012143832, -0.11263331564048126
0.7967101949758447, -0.28444799526965137
0.7997367483918663, -0.10044279311158294
0.7997367483918663, -0.11271549893842889
0.7997367483918663, -0.24092144373673038
0.7999162205620886, -0.28132431840393624
0.7996204238370924, -0.28795869920404016
0.8030868955693492, -0.10044279311158294
0.8030868955693492, -0.11271549893842889
0.8030868955693492, -0.24267468742627982
0.8030868955693492, -0.2778765333805143
0.8030868955693492, -0.2843416194857278
0.8030868955693492, -0.2900944503420618
0.8064370427468321, -0.10110025949516396
0.8064370427468321, -0.11245251238499646
0.8058088901510541, -0.24412111347015805
0.8062276585482394, -0.28058858221278604
0.8063772186900913, -0.28725716981767935
0.8070651953426102, -0.10495739561217268
0.8070651953426102, -0.10846388299127152
0.8089496531299444, -0.2834376032083038
0.8095359288860039, -0.28823710780844547
0.8131373371017981, -0.2903410002359047
0.8156499474849104, -0.252755838641189
0.8164874842792811, -0.2923133993866478
0.8190000946623933, -0.25450908233073843
0.819837631456764, -0.2943405874026893
0.8217220892440982, -0.25595550837461667
0.823187778634247, -0.2963403809860816
0.82653792581173, -0.2983480015502309
0.828073409934743, -0.10959253361641899
0.8275848468046935, -0.11495088464260442
0.8274452573389649, -0.1185596445702603
0.828571943740916, -0.3029424392545411
0.8303068413863983, -0.11972847369662659
0.8315631465779544, -0.10789407879216797
0.8315631465779544, -0.2623438900684124
0.8317426187481768, -0.30015603410507863
0.8315631465779544, -0.3071063930172211
0.8336569885638813, -0.11972847369662659
0.8349132937554374, -0.10789407879216797
0.8349132937554374, -0.26406973932531264
0.8349132937554374, -0.2969704529370134
0.8349132937554374, -0.3032437780136825
0.8349132937554374, -0.309188369898561
0.8370071357413643, -0.11956410710073131
0.8382634409329204, -0.10835978414720454
0.837844672535735, -0.26564948494141705
0.8380540567343276, -0.2998742627978297
0.8383890714520761, -0.30514860423055756
0.8372165199399569, -0.30783691122119994
0.8388915935286985, -0.11214569473932534
0.8388915935286985, -0.11565218211842421
0.8393103619258838, -0.11907100731304554
0.8409854355146253, -0.3028986081623024
0.8416135881104033, -0.30669547652748286
0.8449637352878864, -0.3085582979476291
0.8474763456709985, -0.271822363765039
0.8483138824653693, -0.3103937249351262
0.8497795718555181, -0.27306424471180313
0.8516640296428523, -0.3121469686246756
0.8545954084231498, -0.27664378391129985
0.8550141768203352, -0.3140919733427695
0.8566892504090766, -0.2778491389478651
0.8583643239978183, -0.3160917669261618
0.8617144711753011, -0.3182833215380986
0.8624124185039435, -0.11178408822835575
0.8619238553738939, -0.11714243925454118
0.8619238553738939, -0.12064892663364005
0.8629707763668573, -0.12181045057796652
0.8628375318768438, -0.32244727530077844
0.8659021551471549, -0.11008563340410477
0.8659021551471549, -0.12192002830856336
0.8659021551471549, -0.28387591413069124
0.8659021551471546, -0.3195982543052607
0.8659021551471549, -0.32641946803491395
0.8688335339274524, -0.315982189195565
0.8692523023246379, -0.11008563340410477
0.8692523023246379, -0.12192002830856336
0.8692523023246379, -0.2856291578202407
0.8692523023246379, -0.32283079735786746
0.8692523023246379, -0.3282275005897617
0.8721836811049355, -0.3189407879216797
0.8726024495021207, -0.11068831092238737
0.8726024495021207, -0.12153650625147441
0.8719742969063429, -0.2870755838641189
0.8726024495021207, -0.3257189532571698
0.8732306020978988, -0.11451257372021706
0.8732306020978988, -0.1180190610993159
0.8751150598852331, -0.32189938664779427
0.8753244440838257, -0.327130157887642
0.8784652070627161, -0.3295972222222222
0.881815354240199, -0.2932995989620194
0.881815354240199, -0.33206272116065105
0.885165501417682, -0.29508023708421793
0.885165501417682, -0.33433645907053555
0.887887495999387, -0.29645543760320836
0.8885156485951649, -0.3361444916253834
0.8918657957726479, -0.3378977353149327
0.895215942950131, -0.3397879511677282
0.8963326586759586, -0.11923537390894082
0.895844095545909, -0.12459372493512624
0.8957045060801805, -0.12816595895258318
0.8967577720488589, -0.3435061227991164
0.8977285533332431, -0.3029150448218919
0.8985660901276138, -0.1293713139891484
0.899134418666651, -0.3473370741077747
0.89982239531917, -0.1175369190846898
0.9000018674893924, -0.34088764196407517
0.89982239531917, -0.3039286388299127
0.9019162373050968, -0.1293713139891484
0.9023350057022823, -0.34978691908468984
0.903172542496653, -0.1175369190846898
0.903172542496653, -0.3374594243925454
0.903172542496653, -0.34386972163246055
0.904428847688209, -0.3075447039396084
0.9052663844825799, -0.12920694739325314
0.9057689065592023, -0.34754057560745455
0.9065226896741359, -0.11794783557442795
0.9063133054755432, -0.34019886765746643
0.9069414580713213, -0.34631956660937546
0.9071508422699139, -0.12170087284736969
0.9071508422699139, -0.12520736022646853
0.9065226896741359, -0.30864048124557675
0.9075696106670994, -0.1286407957851695
0.9092446842558408, -0.34311050449903957
0.9097099824749357, -0.34769885455165006
0.913222984029102, -0.34984170794998826
0.9157355944122141, -0.3147768341589998
0.9165731312065848, -0.35184150153338056
0.9190857415896971, -0.31653007784854914
0.9199232783840678, -0.35378650625147445
0.9218077361714019, -0.3179326728001888
0.9232734255615507, -0.3555397499410238
0.9266235727390337, -0.3572929936305732
0.9299737199165168, -0.3592653927813163
0.9302528988479735, -0.12381937563890857
0.9297643357179239, -0.1292398207124322
0.9296247462521956, -0.13280474954784935
0.9306437493520132, -0.3631882755366832
0.9316487935052582, -0.13438449516395376
0.9316487935052582, -0.32420051899032787
0.9337426354911851, -0.12192002830856336
0.9339221076614075, -0.3598445893573282
0.9336263109364114, -0.36641635431137676
0.9349989406827413, -0.1341927341354093
0.9337426354911851, -0.3252962962962963
0.9370927826686681, -0.12192002830856336
0.9370927826686681, -0.35641637178579855
0.9370927826686681, -0.3627992745930644
0.9370927826686681, -0.3687986553432413
0.9383490878602241, -0.1341927341354093
0.9383490878602241, -0.32899454470393963
0.940442929846151, -0.12238573366359992
0.940442929846151, -0.3592653927813163
0.9404080324797188, -0.3656261191431043
0.9389772404560022, -0.36759330030667614
0.9411757745412255, -0.1338092120783204
0.9406523140447436, -0.3301907682629551
0.9416294403048429, -0.12593787843044743
0.9414898508391145, -0.12994111818825196
0.9433743086264486, -0.362223991507431
0.9435418159853228, -0.3666665857850572
0.9471432242011169, -0.3688260497758905
0.9500746029814144, -0.33625406935598023
0.9504933713785999, -0.370853237791932
0.9534247501588975, -0.33800731304552956
0.953843518556083, -0.3730447924038688
0.9561467447406025, -0.3394099079971692
0.9571936657335658, -0.37556508020759616
0.9605438129110488, -0.3780853680113234
0.9625805501155413, -0.12825561345943517
0.9620095023011976, -0.1331846190139184
0.9620095023011976, -0.13669110639301726
0.9626376548969757, -0.13912373201226705
0.962879252049198, -0.3816433328407851
0.9657462049222365, -0.3845164368540164
0.9659878020744586, -0.12674144845482427
0.9659878020744586, -0.13901415428167022
0.9659878020744586, -0.3480884642604388
0.9656388284101374, -0.37844555407022973
0.9689191808547564, -0.37548289690964853
0.9689191808547564, -0.384267378312495
0.9689191808547564, -0.38808433592828495
0.9693379492519416, -0.12674144845482427
0.9693379492519416, -0.13901415428167022
0.9693379492519416, -0.34986910238263746
0.9722693280322392, -0.3783319179051663
0.9724142863235725, -0.3858337779229498
0.9726880964294247, -0.12734412597310688
0.9726880964294247, -0.13866350554376036
0.9720599438336466, -0.3512443029016278
0.9733162490252028, -0.1311683887709366
0.9733162490252028, -0.1346748761500354
0.9749913226139442, -0.38175622198631753
0.975549680476858, -0.3873010580762407
0.9789696223872051, -0.38939926869544705
0.9823197695646881, -0.3911525123849965
0.9839948431534296, -0.357512149091767
0.9856699167421712, -0.392933150507195
0.9873449903309126, -0.3592653927813163
0.989020063919654, -0.3948781552252889
0.9900669849126176, -0.36071181882519465
0.9923702110971371, -0.3969053432413304
0.9957203582746201, -0.3990225415360765
0.9965007902875564, -0.1330770336056961
0.9959297424732128, -0.1380060391601793
0.9959297424732128, -0.14151252653927818
0.9966835255881465, -0.14322193913658884
0.9968570153526946, -0.40374947884320045
0.9999080422464737, -0.13156286860108515
0.9999080422464737, -0.1433972635055438
1.000087514416696, -0.4001848481784789
0.9997917176916999, -0.4069357640254079
1.0032581894239567, -0.13087800778485495
1.0026300368281786, -0.14449304081151218
1.0026300368281786, -0.39958999764095304
1.0066083366014398, -0.13208336282142016
1.0066083366014398, -0.14304113588110404
1.006398952402847, -0.3998091531021467
1.0066083366014398, -0.40619205590941254
1.0072364891972176, -0.13590214673271997
1.0072364891972176, -0.13940863411181884
1.0091907417174162, -0.40319388744724904
0.3961783439490446, -0.025333333333333347
0.4012738853503185, -0.026666666666666672
0.40445859872611467, -0.026666666666666672
0.40445859872611467, -0.02933333333333335
0.40382165605095544, -0.034
0.4031847133757962, -0.038000000000000034
0.3961783439490446, -0.038000000000000034
0.3942675159235669, -0.03666666666666668
0.3942675159235669, -0.02933333333333335
0.39299363057324843, -0.033333333333333354
0.4, -0.03733333333333336
