0.002203274748385168, -0.0011273245377067254
0.002463772470081626, -0.0041737035275735135
0.0026605770675171385, 0.001643231474418222
0.002668449251414559, -0.0012950186610363873
0.002835066300681449, -0.0063268937347400744
0.0030445760638640393, 0.0043140606365418
0.0030684993240198376, -0.008210955609390502
0.0030964097942016017, -0.0012487582132213043
0.0034499424165039365, 0.0038919340502292094
0.0034871563767462886, -0.0069156630705683175
0.003576469881327933, -0.0010674172577861962
0.0037144273482263637, 0.0021436746265510453
0.003901519510983241, -0.004330415736902654
0.004021749228689302, -0.00045284127773624616
0.0042965600120174335, -0.0028031092598079094
0.0044361123629262506, -0.0009249350785157512
0.004846181578673701, -0.0077252209073321865
0.004882679885834466, -0.0012689971591404031
0.005113575593701784, -0.004811793977208656
0.005273426468379156, -0.008332389284905067
0.005352083247982309, -0.0009838120120985866
0.005697158152047747, 0.0018864385000642026
0.005719993991287375, -0.008210955609390502
0.005775814931650899, -0.0014309087264931658
0.005980491712983836, 0.004350683491062074
0.00616656151419559, -0.008210955609390502
0.006245218293798743, -0.0009690927787028708
0.006278203394922646, 0.003122854105303538
0.006440084121976872, 0.000758945221953064
0.006646621601321925, -0.007949584079235322
0.006665848814113806, -0.001878414308482082
0.0068922337389214425, -0.004648901127629501
0.0070368607207724025, -0.007813536307706426
0.007115517500375552, -0.0012487582132213043
0.007162034950678492, -0.008750660833899748
0.007562085023283767, -0.0012487582132213043
0.008032575806347784, -0.0013412791088514564
0.008371488658554912, -0.003882045242694962
0.008468244955185032, 0.0008377935852289659
0.008790145711281363, -0.0014147175697578895
0.008752931751039014, -0.006146583125642646
0.00891481247809325, 0.003867647315126302
0.008706414300736074, 0.0011259447746193446
0.009041339942917236, -0.008122640209016263
0.009236713234189578, -0.0012487582132213043
0.009325519275677013, 0.00428567354356435
0.009459996995643684, -0.006834707286891922
0.009571638876370747, 0.002414490998135163
0.009694015553321556, -0.0013894374211922828
0.009903463355198379, -0.004397038689525207
0.010018206399278959, 0.0006941805950119589
0.010163340844224135, -0.001961169109573488
0.010576415802914234, -0.0012689971591404031
0.010819022197571096, -0.009991982850271003
0.011022983325822445, -0.0012689971591404031
0.01107570310283245, -0.006771741677365856
0.011246267087276558, -0.010477717552329319
0.01130518919099361, -0.0041451762514208845
0.011516068299033608, -0.0013297139968976857
0.011692834610184777, -0.010477717552329319
0.011873322317360178, 0.0015569893472607427
0.011929143257723707, -0.0031916970214545676
0.012139402133092989, -0.010477717552329319
0.012195223073456517, 0.0015037384317758279
0.012306864954183573, -0.0010463687540303301
0.012379432176656158, -0.003580284783101212
0.012619462220219327, -0.010442097007511697
0.012721534796884058, -0.005585675195884848
0.012842745981673433, -0.002155462990396831
0.013008613918753624, -0.009899461954640837
0.013255820940363532, -0.002786918103072633
0.0132837314105453, -0.010477717552329319
0.01370238846327175, -0.0027970375760321825
0.014187015718246002, -0.002087754516776563
0.01414134403976676, -0.005222951230062056
0.014555651408828522, -0.007741191776220707
0.014608548395173004, -0.0004438264212389409
0.014615459559218016, -0.003756074484798505
0.014948210359566831, -0.009727036649148285
0.0150660142921522, 0.0016733600737644377
0.015026585215228754, -0.0019012018624058047
0.015020382888521693, -0.004055225380669353
0.015212655016440507, -0.01038776668157776
0.015488658554904618, 0.0013418268644230513
0.015488658554904618, -0.0012830680453508186
0.015455165990686498, -0.0037810551266186515
0.015568096046960404, -0.008360412440793052
0.015935226077812836, -0.0011273245377067254
0.015935226077812836, -0.003717909615351081
0.015925922587752245, -0.006058988111029839
0.01640571686087685, -0.002648136759627398
0.01621433077963047, -0.0042441222092475805
0.016739977968053682, -0.01007293863394737
0.016804437863473472, -0.0026365716476736273
0.01704403293867017, -0.007575084726695963
0.01717879258257808, -0.004443299137340262
0.01716328676581043, -0.010720584903358477
0.017308421210755605, -0.0018154486989560015
0.017609854288718647, -0.010477717552329319
0.017663137913611106, -0.0036774317235128834
0.017733457799523594, -0.00015800294009581106
0.01794477993089981, 0.00267759729508342
0.018056421811626866, -0.010477717552329319
0.018124204382068285, -0.003411434148576184
0.018168063692353915, -0.00019633302542827746
0.018524697478009784, -0.010474119517499242
0.01856578789244405, -0.0032220554403332158
0.01876433282805523, -0.006040920057337751
0.0189375952273654, -0.010084503745901141
0.019037582186478094, -0.002544050752043475
0.01922866155926093, -0.010477717552329319
0.019451945320715043, -0.002786918103072633
0.01986129888338091, -0.002463094968367094
0.02013482149116219, -0.004972724262335054
0.020382294326773825, -0.0012217729519958392
0.02052849202772592, -0.007833712671850873
0.020713498572930755, -0.0037810551266186515
0.020804672775524516, 0.0007826922518314877
0.02087537929998498, -0.002544050752043475
0.020921050978464237, -0.009771194349335377
0.021163071838781626, -0.003378518060707769
0.021185495635337913, -0.01035178633327713
0.02123821541234791, 0.0024752078358924595
0.02123821541234791, -0.0001834186504132418
0.021597064314684868, -0.003400640044085995
0.021540936665857803, -0.008335502968892627
0.021684782935256122, 0.000046534325600880444
0.022043631837593086, -0.0030413505660555618
0.021943951586943927, -0.0061986261294346146
0.022466276100345503, -0.0015176470661464325
0.022458664153932294, -0.0050610396627092935
0.022708882495002372, -0.012482930040313645
0.02279189825246608, -0.006753751503215555
0.02291284362325372, -0.001410669780574067
0.022990372707091956, -0.009848061457068513
0.023136127384707827, -0.012926630008539997
0.023229162285313708, -0.005741804207260726
0.023381119289636647, -0.0017344929152796201
0.023582694907616046, -0.012744479495268107
0.023610605377797807, -0.005121143199075084
0.023829901929225954, -0.0004507654884112061
0.024029262430524265, -0.012744479495268107
0.024122297331130138, -0.005390995811329735
0.02425254619197837, -0.0013701918887358833
0.0243083671323419, -0.0041226885337330155
0.02449753809690719, -0.012665322729006778
0.024531650893796005, -0.006640413406068607
0.02469911371488659, -0.001410669780574067
0.024810755595613646, -0.009506248148212687
0.02489913875118923, -0.012528597405464414
0.024978218416704223, -0.00597021516834767
0.025145681237794808, -0.001410669780574067
0.02517359170797657, -0.012582567927915345
0.025424785939612442, -0.005944193666451686
0.02559224876070302, -0.001410669780574067
0.025903557851191923, -0.0060313768181031735
0.026038816283611238, -0.0015176470661464464
0.026275124931150175, -0.008042464778348496
0.02633962912890358, -0.004434218382769167
0.026523443538585496, -0.001852246782445277
0.026665871513694858, -0.01126568718011281
0.02676448850833709, -0.005964432612370785
0.026931951329427675, -0.0006112314167697613
0.027104996244554605, -0.012377479942601827
0.02721105603124531, -0.005944193666451686
0.027340459120269854, -0.0011310043460556474
0.02758404140549251, -0.003163239836889528
0.027513777284755202, -0.01037807966472759
0.02769111611837164, -0.006193383278682241
0.02799254919633469, -0.0015176470661464325
0.02798138500826198, -0.0077899855342732915
0.02810419107706174, -0.005114396883768746
0.028439116719242902, -0.001410669780574067
0.028550758599969958, -0.005944193666451686
0.029035385854944216, -0.0066507168694456
0.02907246969644446, -0.014936513022505649
0.029343415953132043, -0.011562525053592898
0.029465601789261102, -0.007617279862430354
0.029378769215362283, -0.009700542029036002
0.029499714586149917, -0.015173153005559686
0.02990348605477943, -0.005821140875263586
0.029910397218824443, -0.008673560087541277
0.029946282109058135, -0.015173153005559686
0.03035696474173266, -0.00692645717505852
0.030392849631966354, -0.015173153005559686
0.030671954333783988, -0.005620370531746133
0.030761888071036338, -0.008138994912789271
0.030872909719092685, -0.015011241438206924
0.031044093936207502, -0.010045953372721933
0.03127295979169796, -0.01463344778105044
0.03145344749887337, -0.008190716663471403
0.03153717890941866, -0.015011241438206924
0.03191303990786641, -0.008081426355508292
0.03201165690250864, -0.001410669780574067
0.03221168193881128, -0.010814133808940057
0.03235960743077462, -0.00629104422406962
0.032458224425416855, -0.0015581249579846163
0.032662901206749785, -0.008372867176743265
0.03260285140726781, -0.01320077573053502
0.03279315006759802, -0.002854381256136282
0.03288195610908545, -0.015084837605185475
0.03307225476941565, -0.008210955609390502
0.03312807570977918, -0.0022067349867251895
0.033295538530869764, -0.013746307318263401
0.03345538940554713, -0.0036080410517902867
0.03355102668099514, -0.008583530139101153
0.033742106053777976, -0.001410669780574067
0.033742106053777976, -0.01144918695644595
0.03390956887486856, -0.006429928368510002
0.033987097958706795, -0.008966542923703441
0.034188673576686195, -0.001410669780574067
0.03441195733814031, -0.008190716663471403
0.03463524109959441, -0.0014309087264931658
0.034880233004523226, -0.008516788569945727
0.03503063942716939, -0.01717006233624388
0.03508180862250263, -0.001653537131603225
0.03528338424048203, -0.009884041805369143
0.035312704330369954, -0.013946550222584148
0.035374868559411146, -0.011400613486240108
0.03547255520504732, -0.0175006317862558
0.035528376145410843, -0.0019166434285514816
0.035817947273546646, -0.009309255741266814
0.03561210755595614, -0.01128727538909316
0.035919122727955534, -0.017439914948498503
0.03597494366831906, -0.0029497934297548906
0.0360524727521573, -0.005656350880046762
0.0362757565136114, -0.010279825636675927
0.03636569025086375, -0.017439914948498503
0.03636569025086375, -0.004972724262335054
0.03648131934161678, -0.00735513732481155
0.0366671233288268, -0.010299614828241266
0.036845750337990084, -0.01725533576171634
0.03696111361474138, -0.012218266901371594
0.037241381252816584, -0.01671131289541103
0.03737046717740724, -0.010477717552329319
0.037510019528316056, -0.01727800338114574
0.03784095796047125, -0.010489282664283062
0.03817987081267838, -0.01304422347380324
0.0382766271093085, -0.00821126401237593
0.03859852786540484, -0.010538434390086587
0.03856046813333879, -0.015393941506495284
0.03869084711292913, -0.005470913700343583
0.038793901156677184, -0.017342768008086845
0.03904509538831306, -0.01049795649824839
0.0391491253226269, -0.0050610396627092935
0.039212558209403635, -0.016296414504069545
0.03943584197085774, -0.00705598642894073
0.03952887687146363, -0.010886994014248835
0.03963741758883715, -0.014039772034090292
0.0398544990235842, -0.008581039191911138
0.0399717229983476, -0.011411407590730283
0.040165501405609566, -0.012632793556971722
0.040422011917280065, -0.012420656360562582
0.040831365479945925, -0.012744479495268107
0.04096232999387574, -0.019582129531935194
0.04122972400890383, -0.016592928203956997
0.04129964114632885, -0.01301433210752273
0.04138957488358119, -0.01988882740470918
0.04173496695208051, -0.01167181536155601
0.04152912723449001, -0.01387786046673753
0.041836142406489404, -0.01970667689143732
0.04195088545056999, -0.00794110299713588
0.042171068048670574, -0.012744479495268107
0.042223787825680564, -0.006969633593019248
0.04228270992939763, -0.01970667689143732
0.04245017275048821, -0.009789593391080015
0.042617635571578785, -0.0128659131707827
0.042762770016523954, -0.01954476532408453
0.042985546314883855, -0.015276187639329641
0.043160816260500806, -0.019470036908383254
0.0432651584797957, -0.013311169981002818
0.0434549496770317, -0.01970667689143732
0.04364017370641976, -0.014554945202940012
0.04388375599164243, -0.01646844554438187
0.04415700535006528, -0.013089416372822599
0.0442922637824846, -0.01775944247019265
0.044584393370387054, -0.010394962751237885
0.044591304534432066, -0.014918720542576758
0.04460357287297351, -0.021114062053811417
0.0450029072924972, -0.009456429204411837
0.04501793600721045, -0.015173153005559686
0.04501793600721045, -0.021629376753751484
0.0453452497029784, -0.011483531834369232
0.045483110510239844, -0.015420389398882517
0.04544518089691592, -0.019482491644333466
0.04579942917229983, -0.013230214197326423
0.045944563617245, -0.015885563901911898
0.04579942917229983, -0.017763738083204056
0.0463576385759351, -0.015173153005559686
0.046837698663061436, -0.015610314237412187
0.04692049972460066, -0.024159244993638557
0.047217788520627635, -0.021124910074907438
0.047229065478276835, -0.016864229375688655
0.04730659456211507, -0.019006987618234272
0.04736241550247859, -0.024341395506910418
0.04770780757097792, -0.016255936612231348
0.0478089830253868, -0.024240200777314924
0.047923726069467404, -0.012492617057163813
0.04814390866756797, -0.017439914948498503
0.04819662844457796, -0.011629088697949014
0.04825555054829503, -0.024240200777314924
0.048423013369385606, -0.014626701465744102
0.048605504905189445, -0.017850921234855543
0.04873561063542135, -0.02407828920996216
0.04903704371338441, -0.017520870732174898
0.049009133243202635, -0.020747536967276575
0.049133656879398205, -0.024003560794260886
0.04944639727605027, -0.018775685379158885
0.049399879825747325, -0.024240200777314924
0.0497108822077727, -0.02000736980223533
0.050166487406739776, -0.01968508868245694
0.05046978118271493, -0.022518926614862267
0.05061305492964799, -0.017278311784131167
0.05065585098392669, -0.020079073496348687
0.05084192078513844, -0.024564023912020477
0.05103357268038655, -0.014493124422678055
0.05104659756647138, -0.019726915837356418
0.051130328977016665, -0.02650696272025374
0.05145595112913724, -0.014242161493281252
0.05147765927261194, -0.021109910475161336
0.051525062769587335, -0.025319611226333416
0.05168853838065195, -0.02290443034665457
0.05175366281107606, -0.01646844554438187
0.05205137449301486, -0.022196356367285036
0.05214130823026722, -0.017817708605654986
0.052274658254468975, -0.020286860007784763
0.05249794201592309, -0.022256784077243463
0.05252585248610485, -0.019968819429056095
0.052908011231670535, -0.030940848718529645
0.0529445095388313, -0.021973438834376108
0.05316469213693188, -0.027784265084925625
0.05333525612137599, -0.031222637119403235
0.053412785205214225, -0.02220731109833013
0.053381773571678934, -0.025283630878032787
0.053781823644284216, -0.031202398173484136
0.0538148087454081, -0.0203837616276398
0.05386048042388737, -0.024034131509775042
0.054072092534174554, -0.018395193195879844
0.05422839116719243, -0.031202398173484136
0.054307047946795584, -0.02396053534279649
0.054395853988283005, -0.02112340310577407
0.05470845125431875, -0.030932545561229513
0.054719615442391456, -0.02472593547937324
0.05495406339191827, -0.027640343691723135
0.05509869037376923, -0.03080497887180003
0.055177347153372386, -0.024240200777314924
0.055223864603675316, -0.03174210339799338
0.0556239146762806, -0.024240200777314924
0.05607048219918882, -0.024665218641615944
0.056079785689249415, -0.02733451073116791
0.05642401482149115, -0.029105386373777853
0.05654097298225283, -0.02463165228096917
0.056875898624433985, -0.02782560577083018
0.056907796304641725, -0.031429074367778004
0.05696361724500526, -0.02173057148334695
0.05701013469530819, -0.026003237844045096
0.05716829402633819, -0.03360408642255025
0.05736738871363477, -0.02777706901526547
0.05738227429773171, -0.021001969430259476
0.05759067247508888, -0.03218466168209094
0.057633468529367585, -0.022843713508897273
0.05780093135045816, -0.026822635204629935
0.058024215111912275, -0.03002179299487015
0.058080036052275796, -0.024564023912020477
0.05828555860543243, -0.027596185991536015
0.05852102148114767, -0.029194694738309768
0.05871267337639577, -0.028325769326849853
0.05914063391918281, -0.029016592014221715
0.0596151119122728, -0.02880316312998396
0.06006726152921736, -0.029632781179118522
0.06025705272645335, -0.026345051152900978
0.060469172299834756, -0.029412118843040597
0.06068078441012194, -0.032321059911557815
0.06094973985005531, -0.029931217140795857
0.06129904361323919, -0.03168813287554245
0.061513023884632714, -0.034311100266657346
0.061786546492413996, -0.0318014709726894
0.06217822342396474, -0.03381996851235394
0.06212705422863152, -0.03689243325473868
0.062132636322667856, -0.04005896090768077
0.06225730308947974, -0.03168813287554245
0.06231126333183115, -0.04303813374697177
0.06260153222172149, -0.036143592255732104
0.06263874618196384, -0.044695028786215146
0.06267037804816984, -0.030441773610409117
0.06265735316208502, -0.033469160116422925
0.06286202994341795, -0.03922601584452151
0.0630480997446297, -0.04482320877703608
0.06307999742483744, -0.028322685296995526
0.06310392068499324, -0.03454471552812349
0.06310392068499324, -0.03630261254509645
0.06327138350608381, -0.04035377488656894
0.06350397075759852, -0.04305792293853711
0.06353188122778028, -0.028949128861158052
0.06357219635137616, -0.033683842861283314
0.06355048820790145, -0.03670739146347837
0.06372725451905263, -0.03884822218736503
0.06363421961844674, -0.04156473848406153
0.06385750337990086, -0.03157668725126067
0.0640198915700493, -0.03523757087153567
0.06427616043262731, -0.03265960227965908
0.06448168298578393, -0.035117714256742066
0.06479787152910181, -0.04485278877491786
0.06485669821240798, -0.035914024783449794
0.06505455243436314, -0.04170865987726399
0.06522511641880727, -0.04512679296582253
0.0652921015472435, -0.03907130034682885
0.06535846644300902, -0.03593381397501513
0.06567168394171548, -0.04512679296582253
0.06579635070852737, -0.033415189593971995
0.06579449001051524, -0.037678860867595004
0.06616011716989634, -0.038265790299248814
0.0661182514646237, -0.04512679296582253
0.0661275549546843, -0.03284849910823731
0.06628571428571428, -0.03535138208689892
0.06654249061138649, -0.03829412482353553
0.06659831155175003, -0.04488500502524237
0.06682531670922838, -0.04009404174727385
0.06699942488036223, -0.04459479781594913
0.0672372075873653, -0.039121345740374236
0.067262580742076, -0.04496488139846974
0.06759130405755011, -0.04071920029899706
0.06801616343698362, -0.0405730301340258
0.06803477041710479, -0.043710066751485754
0.06839617522330456, -0.04560588514204075
0.06848665422004763, -0.040119099489840354
0.06876575892186526, -0.048295633641155356
0.06890929848280006, -0.03789628497232586
0.06890929848280006, -0.04172665005141432
0.06918840318461769, -0.04298146469839828
0.06919637760466962, -0.049371189052855924
0.06931865204546592, -0.037233604057374886
0.06958225093051591, -0.03926799291753891
0.06967218466776826, -0.04293391923814391
0.06960276631885463, -0.047518102268263446
0.0700257172900706, -0.04075518064729769
0.07010324637390883, -0.04334576572494203
0.06997919983976766, -0.04547760136175355
0.0704900460212763, -0.04389037736058318
0.07069158136440695, -0.04535809520489789
0.07077071214799921, -0.054007019698324554
0.07102739305326054, -0.05088364869392109
0.07114213609734114, -0.04527424814323308
0.07119795703770466, -0.05437599125084963
0.0712649421661409, -0.04836502431287795
0.07161262688040515, -0.045149923189730046
0.07164452456061288, -0.05435575230493053
0.07184920134194582, -0.04171315742080156
0.07191432577236992, -0.04744752543121225
0.0720910920835211, -0.05435575230493053
0.07217482349406638, -0.04227714938041374
0.07225456769458571, -0.04477983960720944
0.07239303262457836, -0.047584904942905515
0.07257115217064743, -0.05419384073757777
0.07281676430824695, -0.04753522753019501
0.07281676430824695, -0.05075321993133136
0.07296919841462428, -0.05410665758592628
0.07325571988474196, -0.0486299705140007
0.0732354213609734, -0.05435575230493053
0.0735773246207, -0.05016629049967755
0.0739555114916629, -0.05042130121825816
0.07412456919676387, -0.05324968702645669
0.07445949483894503, -0.049255537933318216
0.07450915372745025, -0.05582767564450117
0.07475273601267292, -0.05790308755329582
0.07488213910169746, -0.046984149945597936
0.07486043095822274, -0.05099158973882292
0.07510941007317753, -0.05227403215325202
0.07516124380351509, -0.05871724515049584
0.07529149266436332, -0.04662447496383568
0.07555509154941331, -0.04865886382399964
0.07559005011812582, -0.052226229690509746
0.07557059736618095, -0.056649499509094814
0.07599855790896799, -0.05014605155375845
0.07599855790896799, -0.05261520295588823
0.07591482649842271, -0.05445289924534219
0.07640706569981016, -0.05295742513233839
0.0766125882529668, -0.05459861965595969
0.07705915577587501, -0.05435575230493053
0.0771342993494413, -0.06331070745313386
0.07739098025470263, -0.06018456872963032
0.07750572329878323, -0.05455814176412149
0.07756154423914675, -0.06360495058995763
0.07762046634286382, -0.05754001312953505
0.07797275849982473, -0.054711957753106666
0.07800811176205497, -0.06358471164403853
0.07821278854338791, -0.05103656517419869
0.07841746532472084, -0.05708126368870217
0.07845467928496319, -0.06358471164403853
0.07851050022532671, -0.0516032556599334
0.07864074908617494, -0.053816047080421314
0.07865563467027188, -0.05877593809366119
0.07886403284762905, -0.05624472059071289
0.0789012468078714, -0.06358471164403853
0.07904700148548728, -0.05894324671325907
0.07932920735065845, -0.06073776658475227
0.07934781433077963, -0.0637466232113913
0.0797385609133243, -0.05903094881224183
0.07983244158575388, -0.06354546035498332
0.08018512843623253, -0.06022504662146852
0.08026265752007077, -0.06208553046484622
0.08024094937659605, -0.06585147358697735
0.08050144709829252, -0.0680102944850143
0.08070612387962545, -0.060030281569417476
0.08087274092889234, -0.06941352806873832
0.08101546492414, -0.06127072549395515
0.08112292023433978, -0.0703526151593844
0.08113098325905896, -0.05746805243293382
0.08123376467306163, -0.060136766266888075
0.08143602496346976, -0.06251581493315983
0.08149262661628591, -0.06834242077701999
0.08163647288568424, -0.05986074559492477
0.08181696059285964, -0.06477761439169666
0.08177602523659305, -0.06747058926050506
0.08208304040859245, -0.06245133067256914
0.08227283160582845, -0.06502572459347822
0.08269707075259125, -0.06568956201962456
0.0831071399683387, -0.07474415505542958
0.08314363827549946, -0.06585147358697735
0.08336382087360004, -0.07153636861847468
0.08353438485804415, -0.07510067187200445
0.08361191394188239, -0.0662112770699835
0.08356927294577136, -0.06915042177179007
0.08398095238095236, -0.07508043292608535
0.08401393748207626, -0.06427651561363673
0.0840367733213159, -0.06777417344929151
0.08427122127084272, -0.06219227216480472
0.08442751990386059, -0.07508043292608535
0.08452140057629016, -0.06844205866462169
0.08458567923489058, -0.06498794522776258
0.0848740874267688, -0.07508043292608535
0.08489269440688997, -0.06941352806873832
0.08515319212858644, -0.071862440524949
0.08530204796955584, -0.07499947714240895
0.08559975965149466, -0.07279343203722743
0.08582519037219351, -0.07505552345418487
0.08625100395573582, -0.07288563167974776
0.08615543173965887, -0.07686636657809773
0.08646927814561883, -0.07951431892436128
0.0866733824044865, -0.07093333798095633
0.08666035751840168, -0.07441254771075517
0.08684558154778974, -0.0810122839845551
0.0870891638330124, -0.08189543798829746
0.0870976215512493, -0.06927860176261103
0.08710692504130989, -0.07532330027711451
0.08746577394364684, -0.07151837844432438
0.08746045766361223, -0.07978936100992845
0.08757520070769281, -0.07651964685811
0.08786671006292456, -0.07317347446615269
0.08795974496353044, -0.07785091974523278
0.0880140153222172, -0.07585625918631736
0.08842491946655984, -0.07678178939572874
0.08845593110009513, -0.07772498852618062
0.08894901607330628, -0.07839962005681717
0.08902809573882128, -0.08842464460207633
0.08932859846777827, -0.08537800860972164
0.0893955835962145, -0.07973539048747755
0.08945140453657803, -0.08888339404290915
0.08956304641730509, -0.08250812607839378
0.08987435550779398, -0.07998759889046939
0.08989797205948624, -0.08884291615107098
0.09010264884081919, -0.07637572546490748
0.09031042678550565, -0.08202464014810423
0.09034453958239447, -0.08884291615107098
0.09040036052275799, -0.0765376370322603
0.09051598961351101, -0.07892005009473682
0.09073528616493914, -0.08171880718754901
0.09073838732829269, -0.08405752982708903
0.09079110710530268, -0.08884291615107098
0.09118185368784737, -0.08475464907541347
0.09115394321766561, -0.08720067025363573
0.09125318044497854, -0.0891127687633256
0.09162842121075558, -0.08611065845199295
0.09172331680937358, -0.08894006309148261
0.09182379450202793, -0.09144822046211101
0.09213080967402733, -0.08684504306105728
0.09219965550047564, -0.09412123324677135
0.09225795737152204, -0.08889688667352189
0.0926643921922081, -0.0870627959777947
0.09259513840523304, -0.09602590204817577
0.09282298933453507, -0.09797472854976733
0.09296812377948023, -0.08858385764330656
0.09307976566020729, -0.08499751642644263
0.09324722848129792, -0.09689801662687139
0.09335887036202498, -0.08868081183185234
0.09354726603575182, -0.09071164549093419
0.09366159161553483, -0.09442678943541657
0.09381739951501104, -0.08907421839014634
0.09401096043808975, -0.09190451669737795
0.09423339842772017, -0.09302563164101757
0.09445668218917429, -0.09305261690224303
0.09486603575184016, -0.09442886522474161
0.09499700026576997, -0.10476006869544349
0.09525368117103131, -0.10163392997193996
0.09531260327474837, -0.09574439670948287
0.09542424515547543, -0.10503407288634817
0.0954831672591925, -0.09900736454599501
0.09579137518632784, -0.0964029408728504
0.09587081267838364, -0.10503407288634817
0.09598555572246423, -0.09312457759884427
0.0962274464640395, -0.09799991479357775
0.0962584580975748, -0.0922610492396295
0.09631738020129187, -0.10503407288634817
0.09649680465246034, -0.09520372772564414
0.09666974988733662, -0.09903322542133605
0.09676394772420008, -0.10503407288634817
0.09704305242601771, -0.10028466691066687
0.09708026638626005, -0.10206569415154737
0.09722125004333204, -0.1048721613189954
0.09754544088928946, -0.10220062045767467
0.09775011767062237, -0.1050070876251227
0.09780221721496167, -0.10762465796399254
0.09812535843639943, -0.10294721268491244
0.09815947123328823, -0.1102294516077515
0.09820333054357389, -0.10508033333416325
0.09857414107598875, -0.1029754829585772
0.09856324270191773, -0.11281662222377142
0.09895292602845554, -0.10475265516213975
0.09899678533874116, -0.10102676159436708
0.09899864603675328, -0.11390682677728009
0.09938260654419495, -0.10498899162641862
0.09944335286164938, -0.1032530456454677
0.09940613890140704, -0.11199627028251738
0.09957592759501276, -0.10736829798235062
0.09978944269190324, -0.10920059721955946
0.09990985643468742, -0.10595928184264974
0.10021723408032555, -0.10878747740225336
0.10067141354964697, -0.11013428725796048
0.10096984088466737, -0.12300625686250588
0.1011179810725552, -0.11142957979678267
0.1012265217899287, -0.11971405499299953
0.10139708577437283, -0.1233503189431305
0.10147523509088177, -0.11693457308677693
0.1015645485954634, -0.11266415549784756
0.1017668995042812, -0.11462733325199992
0.10184365329728104, -0.1233300799972114
0.10204332050704287, -0.11117390186020473
0.10221663867152823, -0.11466045152714027
0.10229022082018926, -0.1233300799972114
0.10237395223073455, -0.11176959408822348
0.10261753451595722, -0.11547000936390411
0.10277028090731559, -0.12316816842985864
0.10292285814430924, -0.11822986562559909
0.10317843048891481, -0.12261431295072359
0.10335081868709628, -0.11912037924603935
0.1036075950127685, -0.1217109643236837
0.10407649091182214, -0.1222978937553375
0.1041645162408569, -0.12625694294551154
0.10456027239497268, -0.12330309473598594
0.10449514796454859, -0.1258882827613852
0.10462708836904419, -0.12926193105568115
0.10494600940594628, -0.13153775098840195
0.10499354921779436, -0.12118822126337334
0.1050037387545274, -0.12517792788493592
0.10536681341791751, -0.13212846132204062
0.10541154173551648, -0.12006486338893049
0.10543395468884428, -0.12687741524557672
0.10568971608832806, -0.12948164014616773
0.10577504238288374, -0.12235861059309477
0.10582368634520053, -0.1307780120954389
0.10612791047018175, -0.1286967738234252
0.10617597850216146, -0.12401370661492311
0.10633723899654499, -0.12661148776222758
0.10653261228781732, -0.13055538369032885
0.10656052275799907, -0.12575875350750298
0.10694268150356476, -0.1437309374836607
0.10697917981072555, -0.13183043728323193
0.1071993624088261, -0.14043873561415435
0.10736992639327023, -0.144216672185719
0.10742574733363375, -0.13316620771389234
0.10742574733363375, -0.13776044843752724
0.10765301830511381, -0.13549657777257687
0.10781649391617845, -0.144216672185719
0.10790952881678431, -0.13369499033266743
0.10809869978134962, -0.13118407602626017
0.10826306143908665, -0.144216672185719
0.10833190726553496, -0.13518200672743433
0.10834679284963195, -0.13255903933631943
0.1087476886940609, -0.14381715013640703
0.10873753943217665, -0.13662995874404624
0.10872823594211606, -0.1386037378508229
0.1090767589928473, -0.14005738346101207
0.10914975560716883, -0.14391526757572384
0.10949112212708426, -0.1408165292713108
0.10955890469752569, -0.14275175800490827
0.11004933153071952, -0.1430023354305732
0.1100815359193908, -0.14907401920630217
0.11046001416339404, -0.15182651585129928
0.11049589905362775, -0.14435834480715268
0.1104803932368601, -0.14690920158354845
0.1108485859041064, -0.15365170079236692
0.11096107355665716, -0.14480255219054736
0.11108201892744479, -0.15553429074367778
0.11128855640678981, -0.14614881688946216
0.11138903409944417, -0.14263803440402947
0.11150067598017127, -0.15456889302333685
0.11167372089529817, -0.14612064941679245
0.11179373591707975, -0.14826446136953833
0.11192398477792798, -0.1519413959633734
0.11213464237429985, -0.1467609968155483
0.11225984076911519, -0.1495597539083605
0.11243187075805369, -0.15184123508469496
0.11250545290671471, -0.14885428207918053
0.11280231881682984, -0.15334259689105703
0.11286363727404736, -0.16680333583143073
0.11304590110205251, -0.15547688573343452
0.11316414000300434, -0.16364606026805165
0.11328694607180409, -0.16724859264165085
0.11341409376929881, -0.1606237110107999
0.11343270074942, -0.15641401025962784
0.11366573102427088, -0.15841862966494788
0.11373351359471232, -0.16720811474981265
0.11393318080447415, -0.15501077667590382
0.11410649896895952, -0.15843545164597153
0.11418008111762054, -0.16720811474981265
0.11423590205798406, -0.15490283563100196
0.11447779279955936, -0.158964117445434
0.11456772653681169, -0.1617750821564196
0.11462664864052874, -0.16720811474981265
0.11493873844347027, -0.1635577448676774
0.11508395095966073, -0.16704620318245986
0.11540814180561812, -0.16439490126705822
0.11551978368634519, -0.16615568956201962
0.11596635120925339, -0.16599377799466683
0.11605437653828818, -0.17434467844928483
0.11641291873216161, -0.1673902652630845
0.1164259436182464, -0.17711494385090423
0.11647635161893835, -0.17142117989718939
0.11667341645385806, -0.16968176369548002
0.11682142652300381, -0.17908653610014783
0.11701392419007564, -0.16939212189166
0.11706500880822646, -0.1810000364415897
0.11723247162931702, -0.17190845661417495
0.11747351659906863, -0.1686653188559876
0.11747351659906866, -0.17983721700332886
0.11764097942015922, -0.17218089260208677
0.11782937509388611, -0.17407586373169268
0.11789682539682536, -0.1773995484059621
0.11809950857314533, -0.17229676400947116
0.11828292023433976, -0.17542512679296582
0.11846053231731463, -0.17771274098321518
0.1185062039957939, -0.17444016475823645
0.11884112963797502, -0.19241234873439414
0.11883554754393869, -0.17896289453962386
0.11908922270625738, -0.1893360289546915
0.1192597866907015, -0.19266870871603606
0.11931560763106502, -0.1802622348676299
0.11931560763106502, -0.18655654704846888
0.11956680186270091, -0.18410579468808372
0.11970635421360973, -0.19262823082419786
0.11979938911421559, -0.180533051239214
0.11998331195618261, -0.1852674818776218
0.12015292173651793, -0.19262823082419786
0.12012501126633618, -0.18036342959722537
0.12033433979269939, -0.18671845861582168
0.12034032060773833, -0.1830523181264768
0.12058088227930497, -0.18566603342802865
0.12059948925942615, -0.19262823082419786
0.12073345951629863, -0.1884832946999669
0.12104390982308963, -0.1923915908411438
0.12114573703298351, -0.18996825507483092
0.1215165475653984, -0.1930677050784411
0.12190113209608477, -0.19479195813336672
0.12202721715718559, -0.20213119435421054
0.12210665464924139, -0.19664228843148532
0.12241796373973027, -0.19864303797242086
0.12230202794051373, -0.2024292777012857
0.12244158029142255, -0.20493350994300855
0.12275288938191142, -0.20708817926239545
0.12285093385408843, -0.197867997546719
0.12316911321416052, -0.20837682927537746
0.12327889439687545, -0.19566407271206235
0.12324168043663311, -0.19899135542116178
0.12352501399756918, -0.20078408795717131
0.12358161565038536, -0.20661489929628732
0.12372546191978367, -0.19813322411419212
0.12391684800103006, -0.2032239661083947
0.12402317360172249, -0.20072380919183644
0.12411620850232835, -0.20440729734911203
0.12433949226378246, -0.20162742993915764
0.12450695508487306, -0.20509542151036128
0.1247674528065695, -0.207416153975751
0.12513874663716934, -0.2089960183602235
0.12519612900243812, -0.224587083272445
0.12538232892239198, -0.21107143026901817
0.12545280990769947, -0.2213945192905403
0.1256233738921436, -0.22486887167331857
0.12569470064927477, -0.2186060422972426
0.12575277698116813, -0.21236672280784033
0.12591364278203393, -0.21606377368731625
0.12604203094487004, -0.21413008696864602
0.12606994141505182, -0.2248486327273995
0.12634904611686942, -0.21256483167364584
0.12642347403735416, -0.21668559120669725
0.12651650893796001, -0.2248486327273995
0.12666536477892942, -0.21907378682515063
0.1266839717590506, -0.21383864614741097
0.12688864854038354, -0.21664511331485906
0.12694074808472283, -0.22125419593216797
0.12696307646086824, -0.22471370642127217
0.12712495718792247, -0.2194731686912875
0.1273507218800594, -0.22294167426746683
0.12743135212725115, -0.2253703477777584
0.1277972894029676, -0.22655769927167876
0.1279771568774723, -0.22830274616425864
0.12799177664756753, -0.23440141520121296
0.12832670228974868, -0.2307489325583659
0.12841442091031993, -0.2329627152741641
0.12840680896390674, -0.237212788779793
0.12872573000080884, -0.23947049273294982
0.1287732698126569, -0.22979464560629484
0.12893964521283133, -0.23366545353142773
0.1291419538330579, -0.2407267604324613
0.12917659144220656, -0.22833595879345917
0.1293633768964999, -0.23480619411959494
0.1295547629777463, -0.2303767562413013
0.12954944669771168, -0.2389079538258652
0.12984715837965047, -0.23587699498527012
0.12994391467628058, -0.23194035937745092
0.13014885727161524, -0.23778613796634965
0.1302534107789628, -0.23442300341019337
0.13049755691206794, -0.24008303929195576
0.13074113919729058, -0.24215845120075039
0.13111158725606675, -0.2436450937737167
0.13116896962133553, -0.2590119734388344
0.1313551695412894, -0.2457205056825114
0.13142565052659688, -0.255719771569328
0.13159621451104098, -0.25935603551945907
0.1316631996394772, -0.25282695156595847
0.13173018476791346, -0.24712766439514092
0.13190881177707672, -0.2493588057932621
0.1320427820339492, -0.2593357965735399
0.1321488418206399, -0.2508516304442546
0.13230327975564565, -0.2469765469322783
0.13237212558209402, -0.24949157327849134
0.13248934955685743, -0.2593357965735399
0.13263687632781818, -0.25156404134060684
0.13260099143758447, -0.24816389842619865
0.13295452405988684, -0.25400620748151126
0.13293591707976565, -0.2593357965735399
0.13285218566922036, -0.2510783066385486
0.1333038278230707, -0.25706903463060116
0.13340419274614854, -0.26014535441030384
0.133717410244855, -0.2610358680307441
0.13382905212558208, -0.26358597521655025
0.13391707745461687, -0.2734221029332311
0.1340751717262758, -0.26582697850104653
0.1342886445345751, -0.27603787425468584
0.134339052535267, -0.27046844343182597
0.13447657503379898, -0.2679171096432369
0.13468412743933247, -0.27801450375269154
0.1348896499924891, -0.2682206938320233
0.13492770972455512, -0.28006047719469473
0.13533621751539732, -0.26771472018404585
0.13532071169862966, -0.2703457831535284
0.13533621751539732, -0.27891697675026583
0.13578278503830551, -0.2703457831535284
0.13578278503830551, -0.27293636823117273
0.13575058064963427, -0.276635424808386
0.13622935256121374, -0.2728756513934155
0.13620144209103197, -0.27565648256269937
0.13639681538230433, -0.27783419314359414
0.13667592008412197, -0.28027096223225334
0.13697363176606078, -0.28263756964172637
0.13714181024023292, -0.300461334681144
0.13734577136848428, -0.28477904287183275
0.13739849114549427, -0.2971691328116376
0.1375690551299384, -0.30080539676176865
0.1376248760703019, -0.29453132352684874
0.13771368211178933, -0.2871993053916124
0.13785932401982873, -0.2918800216114471
0.13801562265284661, -0.2889521207684844
0.13801562265284661, -0.3007851578158496
0.13831891642882177, -0.2918260510889962
0.13837845876520954, -0.2879478835471655
0.1384621901757548, -0.3007851578158496
0.13859315468968464, -0.29486915823949833
0.13874129487757245, -0.2918800216114471
0.13889099649036554, -0.29692871866617443
0.13893108607480845, -0.30081754012932005
0.1390855240098142, -0.2955500171381099
0.13928834009313504, -0.29893936594802795
0.13937703336504595, -0.3015587353043129
0.1397530494216614, -0.30264714084040645
0.1398501017384298, -0.3057013817700156
0.13988991807351425, -0.3217589331560087
0.14002517650593357, -0.3081926120222389
0.14026440910749155, -0.32451291250766656
0.1403042812077512, -0.31064557226763345
0.14032820446790703, -0.31921994627015804
0.14058338590956884, -0.3126748639117881
0.1406569680582299, -0.32654381625833606
0.14072692547050364, -0.3167453427438215
0.14087179410144707, -0.3283281144399711
0.14102995343247707, -0.3143857294734824
0.14120671974362822, -0.3167064619388722
0.1413090581342947, -0.3274196106453806
0.14154307669197255, -0.318682613376306
0.14172342126853166, -0.3248452167244714
0.1419361133643783, -0.32102410373494605
0.14220980512652434, -0.32523380448611816
0.14225801412047467, -0.32134792686965163
0.1425371188222923, -0.32814821269846806
0.14287204446447346, -0.33106262091081795
0.1430588299187668, -0.3515008426051178
0.14320697010665462, -0.33397702912316785
0.14331551082402816, -0.3483331880951136
0.14348607480847225, -0.35166586785645815
0.14353428380242259, -0.3367589642349563
0.1435418957488358, -0.3455941840807293
0.14378192579239896, -0.34314122383533474
0.14381789928729988, -0.33920445972627156
0.14393264233138048, -0.35162538996462
0.14411126934054375, -0.3415868727887481
0.14426756797356163, -0.33834864144169263
0.1443792098542887, -0.35162538996462
0.14449395289836928, -0.3413530005247941
0.14450015522507634, -0.3441054971697912
0.14483651217342067, -0.3462324892981776
0.1448257773771969, -0.35162538996462
0.14476995643683338, -0.3430440768949231
0.14519368812050198, -0.34897592795339283
0.1452890911822142, -0.35219208045035466
0.14560727054228628, -0.3529206825034422
0.14571891242301335, -0.3555315065270056
0.14586275869241166, -0.39074571558423976
0.145945297347821, -0.3579219509172278
0.1462289128326983, -0.3603833338350654
0.14622344784552985, -0.3934807755989066
0.14630104508680442, -0.3881749987758494
0.14654506234039355, -0.36294300852257877
0.1466250723549146, -0.3961942474045931
0.14672368934955685, -0.38581908909493356
0.14672927144359318, -0.36610028408595785
0.14688805100729388, -0.36898590801966724
0.14706419708577434, -0.39734921658504285
0.14712560012017423, -0.37171861547309903
0.14715164989234386, -0.385181562298482
0.14744936157428268, -0.3744549209613608
0.14748156596295395, -0.38745766529338355
0.14750518251464623, -0.39509864579883935
0.14778428721646386, -0.3773693291737108
0.14787422095371622, -0.3889190209782085
0.1479734581810291, -0.3913901855664932
0.14784010815682738, -0.3932366627742825
0.14811921285864502, -0.3802837373860607
0.14825876520955383, -0.39064607769663806
0.14845413850082617, -0.3831036971841214
0.1487997989392311, -0.3857513664682043
0.1490316705376642, -0.41369979394048273
0.14917981072555203, -0.3879861019472711
0.14928835144292554, -0.41050722995857813
0.14945891542736967, -0.4138399097199227
0.1495147363677332, -0.40772774805235557
0.14955982251187297, -0.3904218924495343
0.1497380201291873, -0.40513716297471114
0.14992940621043369, -0.39300536053520707
0.14994354268234392, -0.4137111164277103
0.14999851785088375, -0.40305929786035055
0.15015667718191375, -0.3969099626186463
0.15018458765209552, -0.39963216968471693
0.15015667718191375, -0.4071610575666208
0.15015667718191375, -0.4097516426442652
0.15024040859245905, -0.3942081321783991
0.1503520504731861, -0.413070829774997
0.1504078714135496, -0.40268825051850055
0.1504118586235756, -0.4050330769671272
0.15079861799609431, -0.41379943182808443
0.1507427970557308, -0.4055419418930931
0.15085443893645784, -0.40805157118706104
0.15107772269791195, -0.41066239521062453
0.1512324989416472, -0.4134020125264004
0.1514963797506384, -0.41347560869337896
