{
	"demo": {
		"simulation type": "nonlinear dynamic",
		"parameters file": "benchmark_params.json",
		"num spans": 16,
		"pantograph type": 3,
		"pantograph tag": "pantograph 3_320",
		"contact type": "intermittent",
		"num elements": 10,
		"time integrator": "generalized alpha",
		"spectral radius": 0.1,
		"time step": 0.001,
		"num time steps": 25000,
		"output directory": "output"
	},
	
	"demo-275": {
		"simulation type": "nonlinear dynamic",
		"parameters file": "benchmark_params.json",
		"num spans": 16,
		"pantograph type": 3,
		"pantograph tag": "pantograph 3_275",
		"contact type": "intermittent",
		"num elements": 10,
		"time integrator": "generalized alpha",
		"spectral radius": 0.1,
		"time step": 0.001,
		"num time steps": 25000,
		"output directory": "output_275"
	},
	
	"demo-320": {
		"simulation type": "nonlinear dynamic",
		"parameters file": "benchmark_params.json",
		"num spans": 16,
		"pantograph type": 3,
		"pantograph tag": "pantograph 3_320",
		"contact type": "intermittent",
		"num elements": 10,
		"time integrator": "generalized alpha",
		"spectral radius": 0.1,
		"time step": 0.001,
		"num time steps": 25000,
		"output directory": "output_320"
	},
	
	"demo-static": {
		"simulation type": "nonlinear static",
		"parameters file": "benchmark_params.json",
		"num elements": 10,
		"length adjustment iterations": 25,
		"force": 100,
		"output directory": "output_static"
	}

}
