{
    "demo": {
	"simulation type"   : "nonlinear dynamic",
	"parameters file"   : "parameters.json",
	"num spans"         : 1,
	"pantograph type"   : 3,
	"pantograph tag"    : "pantograph 3",
	"contact type"      : "persistent",
	"num elements"      : 10,
	"time integrator"   : "generalized alpha",
	"spectral radius"   : 0.1,
	"time step"         : 0.0015,
	"num time steps"    : 366,
	"output directory"  : "output-p2"
    }    
}
